Version 4
SHEET 1 2936 1716
WIRE 1312 432 1296 432
WIRE 1312 448 1312 432
WIRE 1200 528 1136 528
WIRE 1312 528 1232 528
WIRE 1200 544 1200 528
WIRE 1232 544 1232 528
WIRE 1728 560 1744 544
WIRE 1184 576 1152 560
WIRE 1264 576 1248 576
WIRE 1728 576 1728 560
WIRE 1264 608 1264 576
WIRE 1136 640 1136 528
WIRE 1216 640 1216 608
WIRE 1216 640 1136 640
WIRE 1216 672 1216 640
WIRE 1440 688 1424 688
WIRE 1536 688 1520 688
WIRE 1552 688 1536 688
WIRE 1776 688 1632 688
WIRE 1424 704 1424 688
WIRE 1728 736 1728 640
WIRE 1616 752 1600 736
WIRE 1328 768 1344 752
WIRE 1536 768 1536 688
WIRE 1584 768 1536 768
WIRE 1216 784 1216 752
WIRE 1296 784 1216 784
WIRE 1664 784 1648 784
WIRE 1392 800 1360 800
WIRE 1440 800 1392 800
WIRE 1536 800 1520 800
WIRE 1584 800 1536 800
WIRE 1216 816 1216 784
WIRE 1296 816 1280 816
WIRE 1392 816 1392 800
WIRE 1536 816 1536 800
WIRE 1728 864 1728 832
WIRE 1776 864 1776 688
WIRE 1776 864 1728 864
WIRE 1312 880 1328 832
WIRE 1616 880 1616 816
WIRE 1616 880 1584 880
WIRE 1776 880 1776 864
WIRE 1280 912 1280 816
WIRE 1392 912 1392 896
WIRE 1392 912 1280 912
WIRE 1584 912 1584 880
WIRE 1216 928 1216 896
WIRE 1216 928 1136 928
WIRE 1392 928 1392 912
WIRE 1216 960 1216 928
WIRE 1616 960 1616 880
WIRE 1776 976 1776 960
WIRE 1776 976 1648 976
WIRE 1824 976 1776 976
WIRE 1264 992 1264 960
WIRE 1264 992 1248 992
WIRE 1536 992 1536 896
WIRE 1584 992 1536 992
WIRE 1152 1008 1184 992
WIRE 1664 1008 1648 1008
WIRE 1776 1008 1776 976
WIRE 1392 1024 1392 1008
WIRE 1136 1040 1136 928
WIRE 1200 1040 1200 1024
WIRE 1200 1040 1136 1040
WIRE 1232 1040 1232 1024
WIRE 1312 1040 1232 1040
WIRE 1600 1056 1616 1024
WIRE 1536 1072 1536 992
WIRE 1664 1072 1664 1008
WIRE 1664 1072 1536 1072
WIRE 1776 1104 1776 1088
WIRE 1312 1136 1312 1120
WIRE 1312 1136 1248 1136
WIRE 1344 1136 1312 1136
FLAG 1296 432 analog_voltage
IOPIN 1296 432 In
FLAG 1312 880 Vs
FLAG 1600 1056 Vs
FLAG 1600 736 Vs
FLAG 1824 976 analog_current
IOPIN 1824 976 Out
FLAG 1424 704 0
FLAG 1312 608 0
FLAG 1312 960 0
FLAG 1344 1136 Vref
FLAG 1152 560 Vs
FLAG 1152 1008 Vs
FLAG 1392 1024 0
FLAG 1584 912 0
FLAG 1344 752 0
FLAG 1264 608 0
FLAG 1744 544 15V
FLAG 1776 1104 0
FLAG 1168 1136 0
FLAG 1264 960 0
SYMBOL UniversalOpamp2 1328 800 M180
SYMATTR InstName U9
SYMBOL res 1536 784 R90
WINDOW 0 -1 80 VBottom 2
WINDOW 3 -29 24 VTop 2
SYMATTR InstName R18
SYMATTR Value 470k
SYMBOL res 1552 912 R180
WINDOW 0 36 76 Left 2
WINDOW 3 36 40 Left 2
SYMATTR InstName R19
SYMATTR Value 470k
SYMBOL UniversalOpamp2 1616 784 R0
SYMATTR InstName U10
SYMBOL UniversalOpamp2 1616 992 R180
SYMATTR InstName U11
SYMBOL res 1760 864 R0
WINDOW 0 35 46 Left 2
SYMATTR InstName P7
SYMATTR Value 125
SYMBOL res 1648 672 R90
WINDOW 0 -4 81 VBottom 2
WINDOW 3 -33 26 VTop 2
SYMATTR InstName R20
SYMATTR Value 22k
SYMBOL res 1536 672 R90
WINDOW 0 -5 89 VBottom 2
WINDOW 3 -34 37 VTop 2
SYMATTR InstName R21
SYMATTR Value 22k
SYMBOL res 1760 992 R0
WINDOW 3 43 76 Left 2
SYMATTR Value {R_I_out}
SYMATTR InstName testload2
SYMBOL res 1296 432 R0
SYMATTR InstName P5a
SYMATTR Value 80k
SYMBOL res 1296 512 R0
SYMATTR InstName P5b
SYMATTR Value 20k
SYMBOL res 1328 1136 R180
WINDOW 0 -54 69 Left 2
WINDOW 3 -37 43 Left 2
SYMATTR InstName P6a
SYMATTR Value 80k
SYMBOL res 1328 1056 R180
WINDOW 0 -45 74 Left 2
WINDOW 3 -44 44 Left 2
SYMATTR InstName P6b
SYMATTR Value 20k
SYMBOL UniversalOpamp2 1216 576 M90
SYMATTR InstName U7
SYMBOL UniversalOpamp2 1216 992 R270
SYMATTR InstName U8
SYMBOL res 1200 656 R0
SYMATTR InstName R14
SYMATTR Value 470k
SYMBOL res 1200 800 R0
SYMATTR InstName R15
SYMATTR Value 470k
SYMBOL res 1376 800 R0
SYMATTR InstName R16
SYMATTR Value 22k
SYMBOL res 1376 912 R0
SYMATTR InstName R17
SYMATTR Value 22k
SYMBOL npn 1664 736 R0
SYMATTR InstName Q5
SYMATTR Value BC337-25
SYMBOL voltage 1264 1136 R90
WINDOW 123 0 0 Left 0
WINDOW 39 0 0 Left 0
WINDOW 0 -41 83 VRight 2
WINDOW 3 -45 15 VRight 2
SYMATTR InstName V3
SYMATTR Value 2.5
SYMBOL diode 1712 576 R0
SYMATTR InstName D6
TEXT 1432 1144 Left 2 !.param R_I_out = 500
TEXT 1488 1120 Left 2 ;0 - 500 Ohm
TEXT 1160 472 Left 2 ;0 - 10 V
