%!PS-Adobe-3.0 EPSF-3.0
%%Title: gl2ps_renderer figure
%%Creator: GL2PS 1.4.0, (C) 1999-2017 C. Geuzaine
%%For: Octave
%%CreationDate: Wed Oct 20 00:15:51 2021
%%LanguageLevel: 3
%%DocumentData: Clean7Bit
%%Pages: 1
%%BoundingBox: 0 0 576 432
%%EndComments
%%BeginProlog
/gl2psdict 64 dict def gl2psdict begin
/tryPS3shading false def % set to false to force subdivision
/rThreshold 0.064 def % red component subdivision threshold
/gThreshold 0.034 def % green component subdivision threshold
/bThreshold 0.1 def % blue component subdivision threshold
/BD { bind def } bind def
/C  { setrgbcolor } BD
/G  { 0.082 mul exch 0.6094 mul add exch 0.3086 mul add neg 1.0 add setgray } BD
/W  { setlinewidth } BD
/LC  { setlinecap } BD
/LJ  { setlinejoin } BD
/FC { findfont exch /SH exch def SH scalefont setfont } BD
/SW { dup stringwidth pop } BD
/S  { FC moveto show } BD
/SBC{ FC moveto SW -2 div 0 rmoveto show } BD
/SBR{ FC moveto SW neg 0 rmoveto show } BD
/SCL{ FC moveto 0 SH -2 div rmoveto show } BD
/SCC{ FC moveto SW -2 div SH -2 div rmoveto show } BD
/SCR{ FC moveto SW neg SH -2 div rmoveto show } BD
/STL{ FC moveto 0 SH neg rmoveto show } BD
/STC{ FC moveto SW -2 div SH neg rmoveto show } BD
/STR{ FC moveto SW neg SH neg rmoveto show } BD
/FCT { FC translate 0 0 } BD
/SR  { gsave FCT moveto rotate show grestore } BD
/SRX  { gsave FCT moveto rotate xshow grestore } BD
/SBCR{ gsave FCT moveto rotate SW -2 div 0 rmoveto show grestore } BD
/SBRR{ gsave FCT moveto rotate SW neg 0 rmoveto show grestore } BD
/SCLR{ gsave FCT moveto rotate 0 SH -2 div rmoveto show grestore} BD
/SCCR{ gsave FCT moveto rotate SW -2 div SH -2 div rmoveto show grestore} BD
/SCRR{ gsave FCT moveto rotate SW neg SH -2 div rmoveto show grestore} BD
/STLR{ gsave FCT moveto rotate 0 SH neg rmoveto show grestore } BD
/STCR{ gsave FCT moveto rotate SW -2 div SH neg rmoveto show grestore } BD
/STRR{ gsave FCT moveto rotate SW neg SH neg rmoveto show grestore } BD
/P  { newpath 0.0 360.0 arc closepath fill } BD
/LS { newpath moveto } BD
/L  { lineto } BD
/LE { lineto stroke } BD
/T  { newpath moveto lineto lineto closepath fill } BD
/STshfill {
      /b1 exch def /g1 exch def /r1 exch def /y1 exch def /x1 exch def
      /b2 exch def /g2 exch def /r2 exch def /y2 exch def /x2 exch def
      /b3 exch def /g3 exch def /r3 exch def /y3 exch def /x3 exch def
      gsave << /ShadingType 4 /ColorSpace [/DeviceRGB]
      /DataSource [ 0 x1 y1 r1 g1 b1 0 x2 y2 r2 g2 b2 0 x3 y3 r3 g3 b3 ] >>
      shfill grestore } BD
/Tm { 3 -1 roll 8 -1 roll 13 -1 roll add add 3 div
      3 -1 roll 7 -1 roll 11 -1 roll add add 3 div
      3 -1 roll 6 -1 roll 9 -1 roll add add 3 div C T } BD
/STsplit {
      4 index 15 index add 0.5 mul
      4 index 15 index add 0.5 mul
      4 index 15 index add 0.5 mul
      4 index 15 index add 0.5 mul
      4 index 15 index add 0.5 mul
      5 copy 5 copy 25 15 roll
      9 index 30 index add 0.5 mul
      9 index 30 index add 0.5 mul
      9 index 30 index add 0.5 mul
      9 index 30 index add 0.5 mul
      9 index 30 index add 0.5 mul
      5 copy 5 copy 35 5 roll 25 5 roll 15 5 roll
      4 index 10 index add 0.5 mul
      4 index 10 index add 0.5 mul
      4 index 10 index add 0.5 mul
      4 index 10 index add 0.5 mul
      4 index 10 index add 0.5 mul
      5 copy 5 copy 40 5 roll 25 5 roll 15 5 roll 25 5 roll
      STnoshfill STnoshfill STnoshfill STnoshfill } BD
/STnoshfill {
      2 index 8 index sub abs rThreshold gt
      { STsplit }
      { 1 index 7 index sub abs gThreshold gt
        { STsplit }
        { dup 6 index sub abs bThreshold gt
          { STsplit }
          { 2 index 13 index sub abs rThreshold gt
            { STsplit }
            { 1 index 12 index sub abs gThreshold gt
              { STsplit }
              { dup 11 index sub abs bThreshold gt
                { STsplit }
                { 7 index 13 index sub abs rThreshold gt
                  { STsplit }
                  { 6 index 12 index sub abs gThreshold gt
                    { STsplit }
                    { 5 index 11 index sub abs bThreshold gt
                      { STsplit }
                      { Tm }
                      ifelse }
                    ifelse }
                  ifelse }
                ifelse }
              ifelse }
            ifelse }
          ifelse }
        ifelse }
      ifelse } BD
tryPS3shading
{ /shfill where
  { /ST { STshfill } BD }
  { /ST { STnoshfill } BD }
  ifelse }
{ /ST { STnoshfill } BD }
ifelse
end
%%EndProlog
%%BeginSetup
/DeviceRGB setcolorspace
gl2psdict begin
%%EndSetup
%%Page: 1 1
%%BeginPageSetup
%%EndPageSetup
mark
gsave
1.0 1.0 scale
1 1 1 C
newpath 0 0 moveto 576 0 lineto 576 432 lineto 0 432 lineto
closepath fill
gsave
1.0 1.0 scale
1 1 1 C
newpath 0 0 moveto 576 0 lineto 576 432 lineto 0 432 lineto
closepath fill
newpath 0 0 moveto 576 0 lineto 576 432 lineto 0 432 lineto
closepath clip
1 1 1 C
74.88 399.6 521.28 47.52 74.88 47.52 T
74.88 399.6 521.28 399.6 521.28 47.52 T
0.5 W
[16 0] 0 setdash
0.85 0.85 0.85 C
74.88 47.52 LS
74.88 399.6 LE
115.462 47.52 LS
115.462 399.6 LE
156.044 47.52 LS
156.044 399.6 LE
196.625 47.52 LS
196.625 399.6 LE
237.207 47.52 LS
237.207 399.6 LE
277.789 47.52 LS
277.789 399.6 LE
318.371 47.52 LS
318.371 399.6 LE
358.953 47.52 LS
358.953 399.6 LE
399.535 47.52 LS
399.535 399.6 LE
440.116 47.52 LS
440.116 399.6 LE
480.698 47.52 LS
480.698 399.6 LE
521.28 47.52 LS
521.28 399.6 LE
[] 0 setdash
0.15 0.15 0.15 C
74.88 47.52 LS
74.88 51.985 LE
115.462 47.52 LS
115.462 51.985 LE
156.044 47.52 LS
156.044 51.985 LE
196.625 47.52 LS
196.625 51.985 LE
237.207 47.52 LS
237.207 51.985 LE
277.789 47.52 LS
277.789 51.985 LE
318.371 47.52 LS
318.371 51.985 LE
358.953 47.52 LS
358.953 51.985 LE
399.535 47.52 LS
399.535 51.985 LE
440.116 47.52 LS
440.116 51.985 LE
480.698 47.52 LS
480.698 51.985 LE
521.28 47.52 LS
521.28 51.985 LE
gsave
0.14902 0.14902 0.14902 C
(0) [10] 0 71.88 32.5189 10 /Helvetica SRX
grestore

gsave
0.14902 0.14902 0.14902 C
(1) [10] 0 112.462 32.5189 10 /Helvetica SRX
grestore

gsave
0.14902 0.14902 0.14902 C
(2) [10] 0 153.044 32.5189 10 /Helvetica SRX
grestore

gsave
0.14902 0.14902 0.14902 C
(3) [10] 0 193.625 32.5189 10 /Helvetica SRX
grestore

gsave
0.14902 0.14902 0.14902 C
(4) [10] 0 234.207 32.5189 10 /Helvetica SRX
grestore

gsave
0.14902 0.14902 0.14902 C
(5) [10] 0 274.789 32.5189 10 /Helvetica SRX
grestore

gsave
0.14902 0.14902 0.14902 C
(6) [10] 0 315.371 32.5189 10 /Helvetica SRX
grestore

gsave
0.14902 0.14902 0.14902 C
(7) [10] 0 355.953 32.5189 10 /Helvetica SRX
grestore

gsave
0.14902 0.14902 0.14902 C
(8) [10] 0 396.535 32.5189 10 /Helvetica SRX
grestore

gsave
0.14902 0.14902 0.14902 C
(9) [10] 0 437.116 32.5189 10 /Helvetica SRX
grestore

gsave
0.14902 0.14902 0.14902 C
(10) [6 10] 0 474.698 32.5189 10 /Helvetica SRX
grestore

gsave
0.14902 0.14902 0.14902 C
(11) [6 10] 0 515.28 32.5189 10 /Helvetica SRX
grestore

[16 0] 0 setdash
0.85 0.85 0.85 C
74.88 47.52 LS
521.28 47.52 LE
74.88 76.86 LS
521.28 76.86 LE
74.88 106.2 LS
521.28 106.2 LE
74.88 135.54 LS
521.28 135.54 LE
74.88 164.88 LS
521.28 164.88 LE
74.88 194.22 LS
521.28 194.22 LE
74.88 223.56 LS
521.28 223.56 LE
74.88 252.9 LS
521.28 252.9 LE
74.88 282.24 LS
521.28 282.24 LE
74.88 311.58 LS
521.28 311.58 LE
74.88 340.92 LS
521.28 340.92 LE
74.88 370.26 LS
521.28 370.26 LE
74.88 399.6 LS
521.28 399.6 LE
[] 0 setdash
0.15 0.15 0.15 C
74.88 47.52 LS
79.348 47.52 LE
74.88 76.86 LS
79.348 76.86 LE
74.88 106.2 LS
79.348 106.2 LE
74.88 135.54 LS
79.348 135.54 LE
74.88 164.88 LS
79.348 164.88 LE
74.88 194.22 LS
79.348 194.22 LE
74.88 223.56 LS
79.348 223.56 LE
74.88 252.9 LS
79.348 252.9 LE
74.88 282.24 LS
79.348 282.24 LE
74.88 311.58 LS
79.348 311.58 LE
74.88 340.92 LS
79.348 340.92 LE
74.88 370.26 LS
79.348 370.26 LE
74.88 399.6 LS
79.348 399.6 LE
gsave
0.14902 0.14902 0.14902 C
(0) [10] 0 63.8755 43.02 10 /Helvetica SRX
grestore

gsave
0.14902 0.14902 0.14902 C
(100) [6 6 10] 0 51.8755 72.36 10 /Helvetica SRX
grestore

gsave
0.14902 0.14902 0.14902 C
(200) [6 6 10] 0 51.8755 101.7 10 /Helvetica SRX
grestore

gsave
0.14902 0.14902 0.14902 C
(300) [6 6 10] 0 51.8755 131.04 10 /Helvetica SRX
grestore

gsave
0.14902 0.14902 0.14902 C
(400) [6 6 10] 0 51.8755 160.38 10 /Helvetica SRX
grestore

gsave
0.14902 0.14902 0.14902 C
(500) [6 6 10] 0 51.8755 189.72 10 /Helvetica SRX
grestore

gsave
0.14902 0.14902 0.14902 C
(600) [6 6 10] 0 51.8755 219.06 10 /Helvetica SRX
grestore

gsave
0.14902 0.14902 0.14902 C
(700) [6 6 10] 0 51.8755 248.4 10 /Helvetica SRX
grestore

gsave
0.14902 0.14902 0.14902 C
(800) [6 6 10] 0 51.8755 277.74 10 /Helvetica SRX
grestore

gsave
0.14902 0.14902 0.14902 C
(900) [6 6 10] 0 51.8755 307.08 10 /Helvetica SRX
grestore

gsave
0.14902 0.14902 0.14902 C
(1000) [6 6 6 10] 0 45.8755 336.42 10 /Helvetica SRX
grestore

gsave
0.14902 0.14902 0.14902 C
(1100) [6 6 6 10] 0 45.8755 365.76 10 /Helvetica SRX
grestore

gsave
0.14902 0.14902 0.14902 C
(1200) [6 6 6 10] 0 45.8755 395.1 10 /Helvetica SRX
grestore

2 LC
[16 0] 0 setdash
74.88 47.52 LS
521.28 47.52 LE
74.88 47.52 LS
74.88 399.6 LE
gsave
0.14902 0.14902 0.14902 C
(Voltage \(V\)) [7 6 2 3 6 6 6 3 4 7 10] 0 271.08 20.5189 11 /Helvetica SRX
grestore

gsave
0.14902 0.14902 0.14902 C
(Illuminance \(Lx\)) [3 2 2 6 9 2 6 6 6 6 6 3 4 6 5 10] 90 39.8755 185.56 11 /Helvetica SRX
grestore

gsave
0 0 0 C
(Voltage to illuminance, with 9.4% tolerance \(1k AD4ETH\)) [7 7 3 4 6 7 6 3 4 7 3 3 3 3 7 10 3 7 6 7 6 6 3 3 9 3 4 7 3 6 3 6 10 3 4 7 3 6 4 6 7 6 6 3 4 6 6 3 8 8 6 7 7 8 10] 0 149.58 411.6 11 /Helvetica-Bold SRX
grestore

[] 0 setdash
0.34524 0.34524 0.34524 C
189.681 91.9114 LS
195.681 91.9114 LE
192.681 94.9114 LS
192.681 88.9114 LE
190.56 94.0327 LS
194.802 89.7901 LE
190.56 89.7901 LS
194.802 94.0327 LE
189.446 93.0058 LS
195.446 93.0058 LE
192.446 96.0058 LS
192.446 90.0058 LE
190.324 95.1271 LS
194.567 90.8845 LE
190.324 90.8845 LS
194.567 95.1271 LE
227.227 116.962 LS
233.227 116.962 LE
230.227 119.962 LS
230.227 113.962 LE
228.106 119.083 LS
232.349 114.841 LE
228.106 114.841 LS
232.349 119.083 LE
244.109 130.112 LS
250.109 130.112 LE
247.109 133.112 LS
247.109 127.112 LE
244.988 132.233 LS
249.231 127.991 LE
244.988 127.991 LS
249.231 132.233 LE
263.369 143.564 LS
269.369 143.564 LE
266.369 146.564 LS
266.369 140.564 LE
264.248 145.686 LS
268.491 141.443 LE
264.248 141.443 LS
268.491 145.686 LE
284.521 159.1 LS
290.521 159.1 LE
287.521 162.1 LS
287.521 156.1 LE
285.399 161.221 LS
289.642 156.979 LE
285.399 156.979 LS
289.642 161.221 LE
308.472 174.944 LS
314.472 174.944 LE
311.472 177.944 LS
311.472 171.944 LE
309.351 177.065 LS
313.593 172.822 LE
309.351 172.822 LS
313.593 177.065 LE
321.166 190.01 LS
327.166 190.01 LE
324.166 193.01 LS
324.166 187.01 LE
322.045 192.131 LS
326.287 187.888 LE
322.045 187.888 LS
326.287 192.131 LE
344.062 208.644 LS
350.062 208.644 LE
347.062 211.644 LS
347.062 205.644 LE
344.941 210.765 LS
349.184 206.522 LE
344.941 206.522 LS
349.184 210.765 LE
370.871 230.992 LS
376.871 230.992 LE
373.871 233.992 LS
373.871 227.992 LE
371.749 233.113 LS
375.992 228.87 LE
371.749 228.87 LS
375.992 233.113 LE
418.002 280.039 LS
424.002 280.039 LE
421.002 283.039 LS
421.002 277.039 LE
418.881 282.161 LS
423.124 277.918 LE
418.881 277.918 LS
423.124 282.161 LE
479.727 346.436 LS
485.727 346.436 LE
482.727 349.436 LS
482.727 343.436 LE
480.606 348.557 LS
484.849 344.315 LE
480.606 344.315 LS
484.849 348.557 LE
478.023 345.409 LS
484.023 345.409 LE
481.023 348.409 LS
481.023 342.409 LE
478.901 347.53 LS
483.144 343.288 LE
478.901 343.288 LS
483.144 347.53 LE
448.28 306.915 LS
454.28 306.915 LE
451.28 309.915 LS
451.28 303.915 LE
449.159 309.036 LS
453.402 304.794 LE
449.159 304.794 LS
453.402 309.036 LE
422.04 274.274 LS
428.04 274.274 LE
425.04 277.274 LS
425.04 271.274 LE
422.919 276.396 LS
427.162 272.153 LE
422.919 272.153 LS
427.162 276.396 LE
397.922 251.853 LS
403.922 251.853 LE
400.922 254.853 LS
400.922 248.853 LE
398.801 253.974 LS
403.044 249.731 LE
398.801 249.731 LS
403.044 253.974 LE
383.865 239.735 LS
389.865 239.735 LE
386.865 242.735 LS
386.865 236.735 LE
384.744 241.856 LS
388.986 237.614 LE
384.744 237.614 LS
388.986 241.856 LE
354.894 212.851 LS
360.894 212.851 LE
357.894 215.851 LS
357.894 209.851 LE
355.772 214.972 LS
360.015 210.73 LE
355.772 210.73 LS
360.015 214.972 LE
312.246 177.813 LS
318.246 177.813 LE
315.246 180.813 LS
315.246 174.813 LE
313.125 179.934 LS
317.367 175.692 LE
313.125 175.692 LS
317.367 179.934 LE
283.867 156.351 LS
289.867 156.351 LE
286.867 159.351 LS
286.867 153.351 LE
284.746 158.472 LS
288.989 154.23 LE
284.746 154.23 LS
288.989 158.472 LE
254.49 135.402 LS
260.49 135.402 LE
257.49 138.402 LS
257.49 132.402 LE
255.369 137.523 LS
259.611 133.281 LE
255.369 133.281 LS
259.611 137.523 LE
215.247 107.999 LS
221.247 107.999 LE
218.247 110.999 LS
218.247 104.999 LE
216.126 110.12 LS
220.369 105.877 LE
216.126 105.877 LS
220.369 110.12 LE
197.822 97.1046 LS
203.822 97.1046 LE
200.822 100.105 LS
200.822 94.1046 LE
198.7 99.2259 LS
202.943 94.9833 LE
198.7 94.9833 LS
202.943 99.2259 LE
76.831 48.0386 LS
82.831 48.0386 LE
79.831 51.0386 LS
79.831 45.0386 LE
77.7097 50.1599 LS
81.9523 45.9173 LE
77.7097 45.9173 LS
81.9523 50.1599 LE
77.3585 48.0804 LS
83.3585 48.0804 LE
80.3585 51.0804 LS
80.3585 45.0804 LE
78.2372 50.2017 LS
82.4799 45.9591 LE
78.2372 45.9591 LS
82.4799 50.2017 LE
207.939 102.345 LS
213.939 102.345 LE
210.939 105.345 LS
210.939 99.3447 LE
208.817 104.466 LS
213.06 100.223 LE
208.817 100.223 LS
213.06 104.466 LE
250.31 130.649 LS
256.31 130.649 LE
253.31 133.649 LS
253.31 127.649 LE
251.189 132.77 LS
255.431 128.528 LE
251.189 128.528 LS
255.431 132.77 LE
280.779 153.232 LS
286.779 153.232 LE
283.779 156.232 LS
283.779 150.232 LE
281.658 155.353 LS
285.9 151.111 LE
281.658 151.111 LS
285.9 155.353 LE
306.321 173.793 LS
312.321 173.793 LE
309.321 176.794 LS
309.321 170.793 LE
307.2 175.915 LS
311.442 171.672 LE
307.2 171.672 LS
311.442 175.915 LE
317.684 182.965 LS
323.684 182.965 LE
320.684 185.965 LS
320.684 179.965 LE
318.563 185.087 LS
322.805 180.844 LE
318.563 180.844 LS
322.805 185.087 LE
338.734 200.082 LS
344.734 200.082 LE
341.734 203.082 LS
341.734 197.082 LE
339.613 202.203 LS
343.855 197.961 LE
339.613 197.961 LS
343.855 202.203 LE
364.824 222.386 LS
370.824 222.386 LE
367.824 225.386 LS
367.824 219.386 LE
365.703 224.508 LS
369.945 220.265 LE
365.703 220.265 LS
369.945 224.508 LE
382.956 238.553 LS
388.956 238.553 LE
385.956 241.553 LS
385.956 235.553 LE
383.835 240.674 LS
388.077 236.431 LE
383.835 236.431 LS
388.077 240.674 LE
402.898 256.964 LS
408.898 256.964 LE
405.898 259.964 LS
405.898 253.964 LE
403.776 259.085 LS
408.019 254.842 LE
403.776 254.842 LS
408.019 259.085 LE
423.481 275.55 LS
429.481 275.55 LE
426.481 278.55 LS
426.481 272.55 LE
424.36 277.672 LS
428.602 273.429 LE
424.36 273.429 LS
428.602 277.672 LE
446.986 299.794 LS
452.986 299.794 LE
449.986 302.794 LS
449.986 296.794 LE
447.865 301.915 LS
452.107 297.673 LE
447.865 297.673 LS
452.107 301.915 LE
457.817 312.064 LS
463.817 312.064 LE
460.817 315.064 LS
460.817 309.064 LE
458.696 314.185 LS
462.938 309.943 LE
458.696 309.943 LS
462.938 314.185 LE
483.867 342.387 LS
489.867 342.387 LE
486.867 345.387 LS
486.867 339.387 LE
484.745 344.508 LS
488.988 340.266 LE
484.745 340.266 LS
488.988 344.508 LE
202.984 99.0498 LS
208.984 99.0498 LE
205.984 102.05 LS
205.984 96.0498 LE
203.862 101.171 LS
208.105 96.9285 LE
203.862 96.9285 LS
208.105 101.171 LE
218.908 110.199 LS
224.908 110.199 LE
221.908 113.199 LS
221.908 107.199 LE
219.787 112.32 LS
224.029 108.078 LE
219.787 108.078 LS
224.029 112.32 LE
241.877 127.178 LS
247.877 127.178 LE
244.877 130.178 LS
244.877 124.178 LE
242.756 129.299 LS
246.999 125.057 LE
242.756 125.057 LS
246.999 129.299 LE
279.436 159.502 LS
285.436 159.502 LE
282.436 162.502 LS
282.436 156.502 LE
280.314 161.623 LS
284.557 157.381 LE
280.314 157.381 LS
284.557 161.623 LE
341.879 206.065 LS
347.879 206.065 LE
344.879 209.065 LS
344.879 203.065 LE
342.758 208.186 LS
347 203.943 LE
342.758 203.943 LS
347 208.186 LE
436.528 310.867 LS
442.528 310.867 LE
439.528 313.867 LS
439.528 307.867 LE
437.407 312.988 LS
441.649 308.746 LE
437.407 308.746 LS
441.649 312.988 LE
82.066 48.7716 LS
88.066 48.7716 LE
85.066 51.7716 LS
85.066 45.7716 LE
82.9447 50.8929 LS
87.1874 46.6503 LE
82.9447 46.6503 LS
87.1874 50.8929 LE
97.0772 51.5625 LS
103.077 51.5625 LE
100.077 54.5625 LS
100.077 48.5625 LE
97.9559 53.6838 LS
102.199 49.4412 LE
97.9559 49.4412 LS
102.199 53.6838 LE
101.01 52.4843 LS
107.01 52.4843 LE
104.01 55.4843 LS
104.01 49.4843 LE
101.888 54.6056 LS
106.131 50.363 LE
101.888 50.363 LS
106.131 54.6056 LE
113.817 55.7857 LS
119.817 55.7857 LE
116.817 58.7857 LS
116.817 52.7857 LE
114.696 57.907 LS
118.939 53.6644 LE
114.696 53.6644 LS
118.939 57.907 LE
119.649 57.7318 LS
125.649 57.7318 LE
122.649 60.7318 LS
122.649 54.7318 LE
120.528 59.8531 LS
124.77 55.6105 LE
120.528 55.6105 LS
124.77 59.8531 LE
131.129 61.2869 LS
137.129 61.2869 LE
134.129 64.2869 LS
134.129 58.2869 LE
132.008 63.4082 LS
136.251 59.1656 LE
132.008 59.1656 LS
136.251 63.4082 LE
147.086 67.5633 LS
153.086 67.5633 LE
150.086 70.5633 LS
150.086 64.5633 LE
147.965 69.6846 LS
152.208 65.442 LE
147.965 65.442 LS
152.208 69.6846 LE
157.711 72.3076 LS
163.711 72.3076 LE
160.711 75.3076 LS
160.711 69.3076 LE
158.589 74.4289 LS
162.832 70.1863 LE
158.589 70.1863 LS
162.832 74.4289 LE
164.646 75.4643 LS
170.646 75.4643 LE
167.646 78.4643 LS
167.646 72.4643 LE
165.525 77.5856 LS
169.767 73.343 LE
165.525 73.343 LS
169.767 77.5856 LE
190.582 87.9124 LS
196.582 87.9124 LE
193.582 90.9124 LS
193.582 84.9124 LE
191.46 90.0337 LS
195.703 85.791 LE
191.46 85.791 LS
195.703 90.0337 LE
213.466 100.256 LS
219.466 100.256 LE
216.466 103.256 LS
216.466 97.2557 LE
214.345 102.377 LS
218.587 98.1344 LE
214.345 98.1344 LS
218.587 102.377 LE
241.309 116.082 LS
247.309 116.082 LE
244.309 119.082 LS
244.309 113.082 LE
242.188 118.203 LS
246.43 113.96 LE
242.188 113.96 LS
246.43 118.203 LE
262.895 129.449 LS
268.895 129.449 LE
265.895 132.449 LS
265.895 126.449 LE
263.773 131.57 LS
268.016 127.328 LE
263.773 127.328 LS
268.016 131.57 LE
281.526 141.725 LS
287.526 141.725 LE
284.526 144.725 LS
284.526 138.725 LE
282.404 143.846 LS
286.647 139.604 LE
282.404 139.604 LS
286.647 143.846 LE
294.333 149.588 LS
300.333 149.588 LE
297.333 152.588 LS
297.333 146.588 LE
295.212 151.709 LS
299.455 147.467 LE
295.212 147.467 LS
299.455 151.709 LE
309.032 160.508 LS
315.032 160.508 LE
312.032 163.508 LS
312.032 157.508 LE
309.911 162.63 LS
314.153 158.387 LE
309.911 158.387 LS
314.153 162.63 LE
321.742 169.346 LS
327.742 169.346 LE
324.742 172.346 LS
324.742 166.346 LE
322.621 171.467 LS
326.864 167.224 LE
322.621 167.224 LS
326.864 171.467 LE
338.734 181.765 LS
344.734 181.765 LE
341.734 184.765 LS
341.734 178.765 LE
339.613 183.886 LS
343.855 179.644 LE
339.613 179.644 LS
343.855 183.886 LE
364.102 203.97 LS
370.102 203.97 LE
367.102 206.97 LS
367.102 200.97 LE
364.98 206.091 LS
369.223 201.848 LE
364.98 201.848 LS
369.223 206.091 LE
388.487 225.805 LS
394.487 225.805 LE
391.487 228.805 LS
391.487 222.805 LE
389.366 227.926 LS
393.609 223.683 LE
389.366 223.683 LS
393.609 227.926 LE
416.176 253.657 LS
422.176 253.657 LE
419.176 256.657 LS
419.176 250.657 LE
417.055 255.778 LS
421.297 251.536 LE
417.055 251.536 LS
421.297 255.778 LE
438.87 277.129 LS
444.87 277.129 LE
441.87 280.129 LS
441.87 274.129 LE
439.748 279.25 LS
443.991 275.008 LE
439.748 275.008 LS
443.991 279.25 LE
474.115 317.325 LS
480.115 317.325 LE
477.115 320.325 LS
477.115 314.325 LE
474.993 319.446 LS
479.236 315.203 LE
474.993 315.203 LS
479.236 319.446 LE
484.475 332.033 LS
490.475 332.033 LE
487.475 335.033 LS
487.475 329.033 LE
485.354 334.154 LS
489.597 329.912 LE
485.354 329.912 LS
489.597 334.154 LE
478.307 327.878 LS
484.307 327.878 LE
481.307 330.878 LS
481.307 324.878 LE
479.186 330 LS
483.428 325.757 LE
479.186 325.757 LS
483.428 330 LE
448.029 289.745 LS
454.029 289.745 LE
451.029 292.745 LS
451.029 286.745 LE
448.907 291.866 LS
453.15 287.624 LE
448.907 287.624 LS
453.15 291.866 LE
417.406 257.368 LS
423.406 257.368 LE
420.406 260.368 LS
420.406 254.368 LE
418.284 259.49 LS
422.527 255.247 LE
418.284 255.247 LS
422.527 259.49 LE
401.242 240.835 LS
407.242 240.835 LE
404.242 243.835 LS
404.242 237.835 LE
402.121 242.957 LS
406.363 238.714 LE
402.121 238.714 LS
406.363 242.957 LE
370.757 211.425 LS
376.757 211.425 LE
373.757 214.425 LS
373.757 208.425 LE
371.636 213.546 LS
375.878 209.304 LE
371.636 209.304 LS
375.878 213.546 LE
338.178 183.188 LS
344.178 183.188 LE
341.178 186.188 LS
341.178 180.188 LE
339.057 185.309 LS
343.299 181.067 LE
339.057 181.067 LS
343.299 185.309 LE
322.172 169.768 LS
328.172 169.768 LE
325.172 172.768 LS
325.172 166.768 LE
323.051 171.889 LS
327.294 167.647 LE
323.051 167.647 LS
327.294 171.889 LE
314.182 164.214 LS
320.182 164.214 LE
317.182 167.214 LS
317.182 161.214 LE
315.061 166.335 LS
319.303 162.093 LE
315.061 162.093 LS
319.303 166.335 LE
299.483 152.944 LS
305.483 152.944 LE
302.483 155.944 LS
302.483 149.944 LE
300.362 155.066 LS
304.604 150.823 LE
300.362 150.823 LS
304.604 155.066 LE
290.377 146.883 LS
296.377 146.883 LE
293.377 149.883 LS
293.377 143.883 LE
291.255 149.004 LS
295.498 144.762 LE
291.255 144.762 LS
295.498 149.004 LE
279.59 139.09 LS
285.59 139.09 LE
282.59 142.09 LS
282.59 136.09 LE
280.469 141.211 LS
284.711 136.969 LE
280.469 136.969 LS
284.711 141.211 LE
262.724 129.255 LS
268.724 129.255 LE
265.724 132.255 LS
265.724 126.255 LE
263.603 131.377 LS
267.845 127.134 LE
263.603 127.134 LS
267.845 131.377 LE
243.517 117.27 LS
249.517 117.27 LE
246.517 120.27 LS
246.517 114.27 LE
244.395 119.391 LS
248.638 115.149 LE
244.395 115.149 LS
248.638 119.391 LE
219.435 103.392 LS
225.435 103.392 LE
222.435 106.392 LS
222.435 100.392 LE
220.314 105.513 LS
224.557 101.271 LE
220.314 101.271 LS
224.557 105.513 LE
198.54 92.2811 LS
204.54 92.2811 LE
201.54 95.2811 LS
201.54 89.2811 LE
199.419 94.4024 LS
203.661 90.1598 LE
199.419 90.1598 LS
203.661 94.4024 LE
181.638 83.6375 LS
187.638 83.6375 LE
184.638 86.6375 LS
184.638 80.6375 LE
182.516 85.7589 LS
186.759 81.5162 LE
182.516 81.5162 LS
186.759 85.7589 LE
156.521 72.1157 LS
162.521 72.1157 LE
159.521 75.1157 LS
159.521 69.1157 LE
157.4 74.237 LS
161.643 69.9944 LE
157.4 69.9944 LS
161.643 74.237 LE
120.359 57.7473 LS
126.359 57.7473 LE
123.359 60.7473 LS
123.359 54.7473 LE
121.238 59.8687 LS
125.48 55.626 LE
121.238 55.626 LS
125.48 59.8687 LE
106.042 53.9522 LS
112.042 53.9522 LE
109.042 56.9522 LS
109.042 50.9522 LE
106.92 56.0735 LS
111.163 51.8309 LE
106.92 51.8309 LS
111.163 56.0735 LE
80.2399 48.5146 LS
86.2399 48.5146 LE
83.2399 51.5146 LS
83.2399 45.5146 LE
81.1185 50.6359 LS
85.3612 46.3933 LE
81.1185 46.3933 LS
85.3612 50.6359 LE
0 LC
1 LJ
0.45753 0.45753 0.45753 C
75.2858 47.5428 LS
75.6916 47.5716 L
76.0975 47.6041 L
76.5033 47.6396 L
76.9091 47.6775 L
77.3149 47.7177 L
77.7207 47.7599 L
78.1265 47.804 L
78.5324 47.8497 L
78.9382 47.8972 L
79.344 47.9461 L
79.7498 47.9966 L
80.1556 48.0485 L
80.5615 48.1017 L
80.9673 48.1563 L
81.3731 48.2122 L
81.7789 48.2693 L
82.1847 48.3276 L
82.5905 48.3871 L
82.9964 48.4477 L
83.4022 48.5095 L
83.808 48.5723 L
84.2138 48.6362 L
84.6196 48.7012 L
85.0255 48.7672 L
85.4313 48.8342 L
85.8371 48.9023 L
86.2429 48.9713 L
86.6487 49.0412 L
87.0546 49.1121 L
87.4604 49.184 L
87.8662 49.2568 L
88.272 49.3305 L
88.6778 49.4051 L
89.0836 49.4805 L
89.4894 49.5569 L
89.8953 49.6341 L
90.3011 49.7122 L
90.7069 49.7912 L
91.1127 49.8709 L
91.5186 49.9515 L
91.9244 50.033 L
92.3302 50.1152 L
92.736 50.1983 L
93.1418 50.2821 L
93.5476 50.3668 L
93.9534 50.4522 L
94.3593 50.5384 L
94.7651 50.6254 L
95.1709 50.7131 L
95.5767 50.8017 L
95.9825 50.8909 L
96.3884 50.9809 L
96.7942 51.0717 L
97.2 51.1632 L
97.6058 51.2554 L
98.0116 51.3484 L
98.4174 51.442 L
98.8233 51.5364 L
99.2291 51.6315 L
99.6349 51.7274 L
100.041 51.8239 L
100.447 51.9211 L
100.852 52.019 L
101.258 52.1176 L
101.664 52.2169 L
102.07 52.3169 L
102.476 52.4176 L
102.881 52.5189 L
103.287 52.6209 L
103.693 52.7236 L
104.099 52.8269 L
104.505 52.9309 L
104.911 53.0356 L
105.316 53.1409 L
105.722 53.2469 L
106.128 53.3535 L
106.534 53.4608 L
106.94 53.5687 L
107.345 53.6773 L
107.751 53.7865 L
108.157 53.8963 L
108.563 54.0067 L
108.969 54.1178 L
109.375 54.2296 L
109.78 54.3419 L
110.186 54.4548 L
110.592 54.5684 L
110.998 54.6826 L
111.404 54.7974 L
111.809 54.9129 L
112.215 55.0289 L
112.621 55.1455 L
113.027 55.2628 L
113.433 55.3806 L
113.839 55.4991 L
114.244 55.6181 L
114.65 55.7378 L
115.056 55.858 L
115.462 55.9788 L
115.868 56.1003 L
116.273 56.2222 L
116.679 56.3448 L
117.085 56.468 L
117.491 56.5918 L
117.897 56.7161 L
118.303 56.841 L
118.708 56.9665 L
119.114 57.0926 L
119.52 57.2193 L
119.926 57.3465 L
120.332 57.4743 L
120.737 57.6026 L
121.143 57.7315 L
121.549 57.861 L
121.955 57.9911 L
122.361 58.1217 L
122.767 58.2529 L
123.172 58.3846 L
123.578 58.5169 L
123.984 58.6497 L
124.39 58.7831 L
124.796 58.9171 L
125.201 59.0516 L
125.607 59.1866 L
126.013 59.3222 L
126.419 59.4584 L
126.825 59.5951 L
127.231 59.7323 L
127.636 59.8701 L
128.042 60.0084 L
128.448 60.1473 L
128.854 60.2867 L
129.26 60.4266 L
129.665 60.5671 L
130.071 60.7081 L
130.477 60.8497 L
130.883 60.9917 L
131.289 61.1343 L
131.695 61.2775 L
132.1 61.4212 L
132.506 61.5654 L
132.912 61.7101 L
133.318 61.8553 L
133.724 62.0011 L
134.129 62.1474 L
134.535 62.2942 L
134.941 62.4416 L
135.347 62.5894 L
135.753 62.7378 L
136.159 62.8867 L
136.564 63.0361 L
136.97 63.1861 L
137.376 63.3365 L
137.782 63.4875 L
138.188 63.639 L
138.593 63.791 L
138.999 63.9435 L
139.405 64.0965 L
139.811 64.25 L
140.217 64.404 L
140.623 64.5586 L
141.028 64.7136 L
141.434 64.8692 L
141.84 65.0252 L
142.246 65.1818 L
142.652 65.3388 L
143.057 65.4964 L
143.463 65.6545 L
143.869 65.813 L
144.275 65.9721 L
144.681 66.1317 L
145.087 66.2917 L
145.492 66.4523 L
145.898 66.6134 L
146.304 66.7749 L
146.71 66.9369 L
147.116 67.0995 L
147.521 67.2625 L
147.927 67.426 L
148.333 67.59 L
148.739 67.7546 L
149.145 67.9195 L
149.551 68.085 L
149.956 68.251 L
150.362 68.4175 L
150.768 68.5844 L
151.174 68.7518 L
151.58 68.9198 L
151.985 69.0882 L
152.391 69.257 L
152.797 69.4264 L
153.203 69.5963 L
153.609 69.7666 L
154.015 69.9374 L
154.42 70.1087 L
154.826 70.2805 L
155.232 70.4528 L
155.638 70.6255 L
156.044 70.7987 L
156.449 70.9724 L
156.855 71.1465 L
157.261 71.3212 L
157.667 71.4963 L
158.073 71.6719 L
158.479 71.848 L
158.884 72.0245 L
159.29 72.2015 L
159.696 72.379 L
160.102 72.5569 L
160.508 72.7354 L
160.913 72.9143 L
161.319 73.0936 L
161.725 73.2735 L
162.131 73.4538 L
162.537 73.6345 L
162.943 73.8158 L
163.348 73.9975 L
163.754 74.1796 L
164.16 74.3623 L
164.566 74.5453 L
164.972 74.7289 L
165.377 74.9129 L
165.783 75.0974 L
166.189 75.2824 L
166.595 75.4678 L
167.001 75.6537 L
167.407 75.84 L
167.812 76.0268 L
168.218 76.2141 L
168.624 76.4018 L
169.03 76.59 L
169.436 76.7786 L
169.841 76.9677 L
170.247 77.1573 L
170.653 77.3473 L
171.059 77.5377 L
171.465 77.7287 L
171.871 77.92 L
172.276 78.1119 L
172.682 78.3042 L
173.088 78.4969 L
173.494 78.6901 L
173.9 78.8837 L
174.305 79.0778 L
174.711 79.2724 L
175.117 79.4674 L
175.523 79.6628 L
175.929 79.8587 L
176.335 80.0551 L
176.74 80.2519 L
177.146 80.4492 L
177.552 80.6469 L
177.958 80.845 L
178.364 81.0436 L
178.769 81.2427 L
179.175 81.4422 L
179.581 81.6421 L
179.987 81.8425 L
180.393 82.0433 L
180.799 82.2446 L
181.204 82.4463 L
181.61 82.6485 L
182.016 82.8511 L
182.422 83.0542 L
182.828 83.2577 L
183.233 83.4616 L
183.639 83.666 L
184.045 83.8708 L
184.451 84.0761 L
184.857 84.2818 L
185.263 84.488 L
185.668 84.6945 L
186.074 84.9016 L
186.48 85.1091 L
186.886 85.317 L
187.292 85.5253 L
187.697 85.7341 L
188.103 85.9433 L
188.509 86.153 L
188.915 86.3631 L
189.321 86.5737 L
189.727 86.7846 L
190.132 86.996 L
190.538 87.2079 L
190.944 87.4202 L
191.35 87.6329 L
191.756 87.846 L
192.161 88.0596 L
192.567 88.2737 L
192.973 88.4881 L
193.379 88.703 L
193.785 88.9183 L
194.191 89.1341 L
194.596 89.3503 L
195.002 89.5669 L
195.408 89.784 L
195.814 90.0014 L
196.22 90.2193 L
196.625 90.4377 L
197.031 90.6565 L
197.437 90.8757 L
197.843 91.0953 L
198.249 91.3154 L
198.655 91.5359 L
199.06 91.7568 L
199.466 91.9781 L
199.872 92.1999 L
200.278 92.4221 L
200.684 92.6448 L
201.089 92.8678 L
201.495 93.0913 L
201.901 93.3152 L
202.307 93.5396 L
202.713 93.7643 L
203.119 93.9895 L
203.524 94.2152 L
203.93 94.4412 L
204.336 94.6677 L
204.742 94.8946 L
205.148 95.1219 L
205.553 95.3496 L
205.959 95.5778 L
206.365 95.8064 L
206.771 96.0354 L
207.177 96.2648 L
207.583 96.4947 L
207.988 96.7249 L
208.394 96.9556 L
208.8 97.1868 L
209.206 97.4183 L
209.612 97.6503 L
210.017 97.8826 L
210.423 98.1154 L
210.829 98.3487 L
211.235 98.5823 L
211.641 98.8164 L
212.047 99.0508 L
212.452 99.2858 L
212.858 99.5211 L
213.264 99.7568 L
213.67 99.993 L
214.076 100.23 L
214.481 100.467 L
214.887 100.704 L
215.293 100.942 L
215.699 101.18 L
216.105 101.419 L
216.511 101.658 L
216.916 101.897 L
217.322 102.137 L
217.728 102.377 L
218.134 102.618 L
218.54 102.859 L
218.945 103.101 L
219.351 103.343 L
219.757 103.585 L
220.163 103.828 L
220.569 104.071 L
220.975 104.315 L
221.38 104.559 L
221.786 104.803 L
222.192 105.048 L
222.598 105.294 L
223.004 105.539 L
223.409 105.785 L
223.815 106.032 L
224.221 106.279 L
224.627 106.526 L
225.033 106.774 L
225.439 107.022 L
225.844 107.271 L
226.25 107.52 L
226.656 107.769 L
227.062 108.019 L
227.468 108.269 L
227.873 108.52 L
228.279 108.771 L
228.685 109.022 L
229.091 109.274 L
229.497 109.526 L
229.903 109.779 L
230.308 110.032 L
230.714 110.286 L
231.12 110.539 L
231.526 110.794 L
231.932 111.049 L
232.337 111.304 L
232.743 111.559 L
233.149 111.815 L
233.555 112.071 L
233.961 112.328 L
234.367 112.585 L
234.772 112.843 L
235.178 113.101 L
235.584 113.359 L
235.99 113.618 L
236.396 113.877 L
236.801 114.137 L
237.207 114.397 L
237.613 114.657 L
238.019 114.918 L
238.425 115.179 L
238.831 115.441 L
239.236 115.703 L
239.642 115.965 L
240.048 116.228 L
240.454 116.491 L
240.86 116.755 L
241.265 117.019 L
241.671 117.283 L
242.077 117.548 L
242.483 117.813 L
242.889 118.079 L
243.295 118.345 L
243.7 118.611 L
244.106 118.878 L
244.512 119.145 L
244.918 119.413 L
245.324 119.681 L
245.729 119.949 L
246.135 120.218 L
246.541 120.488 L
246.947 120.757 L
247.353 121.027 L
247.759 121.298 L
248.164 121.568 L
248.57 121.84 L
248.976 122.111 L
249.382 122.383 L
249.788 122.656 L
250.193 122.929 L
250.599 123.202 L
251.005 123.475 L
251.411 123.749 L
251.817 124.024 L
252.223 124.299 L
252.628 124.574 L
253.034 124.85 L
253.44 125.126 L
253.846 125.402 L
254.252 125.679 L
254.657 125.956 L
255.063 126.234 L
255.469 126.512 L
255.875 126.79 L
256.281 127.069 L
256.687 127.348 L
257.092 127.627 L
257.498 127.907 L
257.904 128.188 L
258.31 128.469 L
258.716 128.75 L
259.121 129.031 L
259.527 129.313 L
259.933 129.596 L
260.339 129.878 L
260.745 130.161 L
261.151 130.445 L
261.556 130.729 L
261.962 131.013 L
262.368 131.298 L
262.774 131.583 L
263.18 131.868 L
263.585 132.154 L
263.991 132.441 L
264.397 132.727 L
264.803 133.014 L
265.209 133.302 L
265.615 133.59 L
266.02 133.878 L
266.426 134.166 L
266.832 134.455 L
267.238 134.745 L
267.644 135.035 L
268.049 135.325 L
268.455 135.615 L
268.861 135.906 L
269.267 136.198 L
269.673 136.489 L
270.079 136.782 L
270.484 137.074 L
270.89 137.367 L
271.296 137.66 L
271.702 137.954 L
272.108 138.248 L
272.513 138.543 L
272.919 138.838 L
273.325 139.133 L
273.731 139.428 L
274.137 139.725 L
274.543 140.021 L
274.948 140.318 L
275.354 140.615 L
275.76 140.913 L
276.166 141.211 L
276.572 141.509 L
276.977 141.808 L
277.383 142.107 L
277.789 142.406 L
278.195 142.706 L
278.601 143.007 L
279.007 143.307 L
279.412 143.608 L
279.818 143.91 L
280.224 144.212 L
280.63 144.514 L
281.036 144.817 L
281.441 145.12 L
281.847 145.423 L
282.253 145.727 L
282.659 146.031 L
283.065 146.336 L
283.471 146.641 L
283.876 146.946 L
284.282 147.252 L
284.688 147.558 L
285.094 147.864 L
285.5 148.171 L
285.905 148.478 L
286.311 148.786 L
286.717 149.094 L
287.123 149.402 L
287.529 149.711 L
287.935 150.02 L
288.34 150.33 L
288.746 150.64 L
289.152 150.95 L
289.558 151.261 L
289.964 151.572 L
290.369 151.884 L
290.775 152.195 L
291.181 152.508 L
291.587 152.82 L
291.993 153.133 L
292.399 153.447 L
292.804 153.761 L
293.21 154.075 L
293.616 154.389 L
294.022 154.704 L
294.428 155.02 L
294.833 155.335 L
295.239 155.651 L
295.645 155.968 L
296.051 156.285 L
296.457 156.602 L
296.863 156.92 L
297.268 157.238 L
297.674 157.556 L
298.08 157.875 L
298.486 158.194 L
298.892 158.513 L
299.297 158.833 L
299.703 159.154 L
300.109 159.474 L
300.515 159.795 L
300.921 160.117 L
301.327 160.439 L
301.732 160.761 L
302.138 161.083 L
302.544 161.406 L
302.95 161.73 L
303.356 162.053 L
303.761 162.377 L
304.167 162.702 L
304.573 163.027 L
304.979 163.352 L
305.385 163.678 L
305.791 164.004 L
306.196 164.33 L
306.602 164.657 L
307.008 164.984 L
307.414 165.311 L
307.82 165.639 L
308.225 165.968 L
308.631 166.296 L
309.037 166.625 L
309.443 166.955 L
309.849 167.284 L
310.255 167.615 L
310.66 167.945 L
311.066 168.276 L
311.472 168.607 L
311.878 168.939 L
312.284 169.271 L
312.689 169.603 L
313.095 169.936 L
313.501 170.269 L
313.907 170.603 L
314.313 170.937 L
314.719 171.271 L
315.124 171.606 L
315.53 171.941 L
315.936 172.276 L
316.342 172.612 L
316.748 172.948 L
317.153 173.285 L
317.559 173.622 L
317.965 173.959 L
318.371 174.297 L
318.777 174.635 L
319.183 174.974 L
319.588 175.312 L
319.994 175.652 L
320.4 175.991 L
320.806 176.331 L
321.212 176.671 L
321.617 177.012 L
322.023 177.353 L
322.429 177.695 L
322.835 178.037 L
323.241 178.379 L
323.647 178.721 L
324.052 179.064 L
324.458 179.408 L
324.864 179.751 L
325.27 180.096 L
325.676 180.44 L
326.081 180.785 L
326.487 181.13 L
326.893 181.476 L
327.299 181.822 L
327.705 182.168 L
328.111 182.515 L
328.516 182.862 L
328.922 183.209 L
329.328 183.557 L
329.734 183.905 L
330.14 184.254 L
330.545 184.603 L
330.951 184.952 L
331.357 185.302 L
331.763 185.652 L
332.169 186.002 L
332.575 186.353 L
332.98 186.704 L
333.386 187.056 L
333.792 187.408 L
334.198 187.76 L
334.604 188.113 L
335.009 188.466 L
335.415 188.819 L
335.821 189.173 L
336.227 189.527 L
336.633 189.882 L
337.039 190.237 L
337.444 190.592 L
337.85 190.948 L
338.256 191.304 L
338.662 191.66 L
339.068 192.017 L
339.473 192.374 L
339.879 192.732 L
340.285 193.09 L
340.691 193.448 L
341.097 193.806 L
341.503 194.165 L
341.908 194.525 L
342.314 194.885 L
342.72 195.245 L
343.126 195.605 L
343.532 195.966 L
343.937 196.327 L
344.343 196.689 L
344.749 197.051 L
345.155 197.413 L
345.561 197.776 L
345.967 198.139 L
346.372 198.502 L
346.778 198.866 L
347.184 199.23 L
347.59 199.595 L
347.996 199.96 L
348.401 200.325 L
348.807 200.691 L
349.213 201.057 L
349.619 201.423 L
350.025 201.79 L
350.431 202.157 L
350.836 202.525 L
351.242 202.893 L
351.648 203.261 L
352.054 203.63 L
352.46 203.999 L
352.865 204.368 L
353.271 204.738 L
353.677 205.108 L
354.083 205.478 L
354.489 205.849 L
354.895 206.221 L
355.3 206.592 L
355.706 206.964 L
356.112 207.336 L
356.518 207.709 L
356.924 208.082 L
357.329 208.456 L
357.735 208.829 L
358.141 209.204 L
358.547 209.578 L
358.953 209.953 L
359.359 210.328 L
359.764 210.704 L
360.17 211.08 L
360.576 211.456 L
360.982 211.833 L
361.388 212.21 L
361.793 212.588 L
362.199 212.966 L
362.605 213.344 L
363.011 213.722 L
363.417 214.101 L
363.823 214.481 L
364.228 214.86 L
364.634 215.24 L
365.04 215.621 L
365.446 216.002 L
365.852 216.383 L
366.257 216.764 L
366.663 217.146 L
367.069 217.528 L
367.475 217.911 L
367.881 218.294 L
368.287 218.677 L
368.692 219.061 L
369.098 219.445 L
369.504 219.83 L
369.91 220.214 L
370.316 220.6 L
370.721 220.985 L
371.127 221.371 L
371.533 221.757 L
371.939 222.144 L
372.345 222.531 L
372.751 222.918 L
373.156 223.306 L
373.562 223.694 L
373.968 224.083 L
374.374 224.472 L
374.78 224.861 L
375.185 225.25 L
375.591 225.64 L
375.997 226.031 L
376.403 226.421 L
376.809 226.812 L
377.215 227.204 L
377.62 227.596 L
378.026 227.988 L
378.432 228.38 L
378.838 228.773 L
379.244 229.166 L
379.649 229.56 L
380.055 229.954 L
380.461 230.348 L
380.867 230.743 L
381.273 231.138 L
381.679 231.533 L
382.084 231.929 L
382.49 232.325 L
382.896 232.722 L
383.302 233.119 L
383.708 233.516 L
384.113 233.913 L
384.519 234.311 L
384.925 234.71 L
385.331 235.108 L
385.737 235.508 L
386.143 235.907 L
386.548 236.307 L
386.954 236.707 L
387.36 237.107 L
387.766 237.508 L
388.172 237.91 L
388.577 238.311 L
388.983 238.713 L
389.389 239.115 L
389.795 239.518 L
390.201 239.921 L
390.607 240.325 L
391.012 240.728 L
391.418 241.133 L
391.824 241.537 L
392.23 241.942 L
392.636 242.347 L
393.041 242.753 L
393.447 243.159 L
393.853 243.565 L
394.259 243.972 L
394.665 244.379 L
395.071 244.786 L
395.476 245.194 L
395.882 245.602 L
396.288 246.011 L
396.694 246.42 L
397.1 246.829 L
397.505 247.238 L
397.911 247.648 L
398.317 248.059 L
398.723 248.469 L
399.129 248.88 L
399.535 249.292 L
399.94 249.703 L
400.346 250.116 L
400.752 250.528 L
401.158 250.941 L
401.564 251.354 L
401.969 251.768 L
402.375 252.182 L
402.781 252.596 L
403.187 253.011 L
403.593 253.426 L
403.999 253.841 L
404.404 254.257 L
404.81 254.673 L
405.216 255.089 L
405.622 255.506 L
406.028 255.923 L
406.433 256.341 L
406.839 256.759 L
407.245 257.177 L
407.651 257.596 L
408.057 258.015 L
408.463 258.434 L
408.868 258.854 L
409.274 259.274 L
409.68 259.694 L
410.086 260.115 L
410.492 260.536 L
410.897 260.958 L
411.303 261.38 L
411.709 261.802 L
412.115 262.224 L
412.521 262.647 L
412.927 263.071 L
413.332 263.494 L
413.738 263.918 L
414.144 264.343 L
414.55 264.768 L
414.956 265.193 L
415.361 265.618 L
415.767 266.044 L
416.173 266.47 L
416.579 266.897 L
416.985 267.324 L
417.391 267.751 L
417.796 268.179 L
418.202 268.607 L
418.608 269.035 L
419.014 269.464 L
419.42 269.893 L
419.825 270.322 L
420.231 270.752 L
420.637 271.182 L
421.043 271.613 L
421.449 272.044 L
421.855 272.475 L
422.26 272.907 L
422.666 273.339 L
423.072 273.771 L
423.478 274.203 L
423.884 274.637 L
424.289 275.07 L
424.695 275.504 L
425.101 275.938 L
425.507 276.372 L
425.913 276.807 L
426.319 277.242 L
426.724 277.678 L
427.13 278.114 L
427.536 278.55 L
427.942 278.987 L
428.348 279.424 L
428.753 279.861 L
429.159 280.299 L
429.565 280.737 L
429.971 281.175 L
430.377 281.614 L
430.783 282.053 L
431.188 282.493 L
431.594 282.932 L
432 283.373 L
432.406 283.813 L
432.812 284.254 L
433.217 284.695 L
433.623 285.137 L
434.029 285.579 L
434.435 286.021 L
434.841 286.464 L
435.247 286.907 L
435.652 287.351 L
436.058 287.794 L
436.464 288.239 L
436.87 288.683 L
437.276 289.128 L
437.681 289.573 L
438.087 290.019 L
438.493 290.465 L
438.899 290.911 L
439.305 291.358 L
439.711 291.805 L
440.116 292.252 L
440.522 292.7 L
440.928 293.148 L
441.334 293.596 L
441.74 294.045 L
442.145 294.494 L
442.551 294.944 L
442.957 295.394 L
443.363 295.844 L
443.769 296.294 L
444.175 296.745 L
444.58 297.197 L
444.986 297.648 L
445.392 298.1 L
445.798 298.553 L
446.204 299.005 L
446.609 299.459 L
447.015 299.912 L
447.421 300.366 L
447.827 300.82 L
448.233 301.274 L
448.639 301.729 L
449.044 302.185 L
449.45 302.64 L
449.856 303.096 L
450.262 303.552 L
450.668 304.009 L
451.073 304.466 L
451.479 304.923 L
451.885 305.381 L
452.291 305.839 L
452.697 306.298 L
453.103 306.756 L
453.508 307.216 L
453.914 307.675 L
454.32 308.135 L
454.726 308.595 L
455.132 309.056 L
455.537 309.517 L
455.943 309.978 L
456.349 310.44 L
456.755 310.902 L
457.161 311.364 L
457.567 311.827 L
457.972 312.29 L
458.378 312.753 L
458.784 313.217 L
459.19 313.681 L
459.596 314.146 L
460.001 314.61 L
460.407 315.076 L
460.813 315.541 L
461.219 316.007 L
461.625 316.473 L
462.031 316.94 L
462.436 317.407 L
462.842 317.874 L
463.248 318.342 L
463.654 318.81 L
464.06 319.278 L
464.465 319.747 L
464.871 320.216 L
465.277 320.686 L
465.683 321.156 L
466.089 321.626 L
466.495 322.096 L
466.9 322.567 L
467.306 323.038 L
467.712 323.51 L
468.118 323.982 L
468.524 324.454 L
468.929 324.927 L
469.335 325.4 L
469.741 325.873 L
470.147 326.347 L
470.553 326.821 L
470.959 327.296 L
471.364 327.77 L
471.77 328.245 L
472.176 328.721 L
472.582 329.197 L
472.988 329.673 L
473.393 330.15 L
473.799 330.627 L
474.205 331.104 L
474.611 331.581 L
475.017 332.059 L
475.423 332.538 L
475.828 333.016 L
476.234 333.495 L
476.64 333.975 L
477.046 334.455 L
477.452 334.935 L
477.857 335.415 L
478.263 335.896 L
478.669 336.377 L
479.075 336.859 L
479.481 337.341 L
479.887 337.823 L
480.292 338.305 L
480.698 338.788 L
481.104 339.272 L
481.51 339.755 L
481.916 340.239 L
482.321 340.724 L
482.727 341.208 L
483.133 341.693 L
483.539 342.179 L
483.945 342.665 L
484.351 343.151 L
484.756 343.637 L
485.162 344.124 L
485.568 344.611 L
485.974 345.099 L
486.38 345.587 L
486.785 346.075 L
487.191 346.564 L
487.597 347.053 L
488.003 347.542 L
488.409 348.032 L
488.815 348.522 L
489.22 349.012 L
489.626 349.503 L
490.032 349.994 L
490.438 350.485 L
490.844 350.977 L
491.249 351.469 L
491.655 351.962 L
492.061 352.454 L
492.467 352.948 L
492.873 353.441 L
493.279 353.935 L
493.684 354.429 L
494.09 354.924 L
494.496 355.419 L
494.902 355.914 L
495.308 356.41 L
495.713 356.906 L
496.119 357.402 L
496.525 357.899 L
496.931 358.396 L
497.337 358.894 L
497.743 359.391 L
498.148 359.89 L
498.554 360.388 L
498.96 360.887 L
499.366 361.386 L
499.772 361.886 L
500.177 362.385 L
500.583 362.886 L
500.989 363.386 L
501.395 363.887 L
501.801 364.389 L
502.207 364.89 L
502.612 365.392 L
503.018 365.895 L
503.424 366.397 L
503.83 366.901 L
504.236 367.404 L
504.641 367.908 L
505.047 368.412 L
505.453 368.916 L
505.859 369.421 L
506.265 369.926 L
506.671 370.432 L
507.076 370.938 L
507.482 371.444 L
507.888 371.951 L
508.294 372.458 L
508.7 372.965 L
509.105 373.473 L
509.511 373.981 L
509.917 374.489 L
510.323 374.998 L
510.729 375.507 L
511.135 376.016 L
511.54 376.526 L
511.946 377.036 L
512.352 377.547 L
512.758 378.057 L
513.164 378.569 L
513.569 379.08 L
513.975 379.592 L
514.381 380.104 L
514.787 380.617 L
515.193 381.13 L
515.599 381.643 L
516.004 382.157 L
516.41 382.671 L
516.816 383.185 L
517.222 383.7 L
517.628 384.215 L
518.033 384.73 L
518.439 385.246 L
518.845 385.762 L
519.251 386.279 L
519.657 386.795 L
520.063 387.313 L
520.468 387.83 L
520.874 388.348 L
521.28 388.866 LE
0.70191 0.70191 0.70191 C
75.2858 47.5406 LS
75.6916 47.5667 L
76.0975 47.5962 L
76.5033 47.6283 L
76.9091 47.6627 L
77.3149 47.6991 L
77.7207 47.7374 L
78.1265 47.7773 L
78.5324 47.8187 L
78.9382 47.8617 L
79.344 47.9061 L
79.7498 47.9518 L
80.1556 47.9988 L
80.5615 48.0471 L
80.9673 48.0965 L
81.3731 48.1471 L
81.7789 48.1989 L
82.1847 48.2517 L
82.5905 48.3056 L
82.9964 48.3605 L
83.4022 48.4165 L
83.808 48.4734 L
84.2138 48.5313 L
84.6196 48.5902 L
85.0255 48.65 L
85.4313 48.7107 L
85.8371 48.7723 L
86.2429 48.8348 L
86.6487 48.8982 L
87.0546 48.9625 L
87.4604 49.0276 L
87.8662 49.0935 L
88.272 49.1603 L
88.6778 49.2279 L
89.0836 49.2962 L
89.4894 49.3654 L
89.8953 49.4354 L
90.3011 49.5062 L
90.7069 49.5777 L
91.1127 49.6499 L
91.5186 49.723 L
91.9244 49.7968 L
92.3302 49.8713 L
92.736 49.9465 L
93.1418 50.0225 L
93.5476 50.0992 L
93.9534 50.1766 L
94.3593 50.2547 L
94.7651 50.3335 L
95.1709 50.413 L
95.5767 50.4932 L
95.9825 50.5741 L
96.3884 50.6556 L
96.7942 50.7378 L
97.2 50.8207 L
97.6058 50.9043 L
98.0116 50.9885 L
98.4174 51.0734 L
98.8233 51.1589 L
99.2291 51.2451 L
99.6349 51.3319 L
100.041 51.4193 L
100.447 51.5074 L
100.852 51.5961 L
101.258 51.6855 L
101.664 51.7754 L
102.07 51.866 L
102.476 51.9572 L
102.881 52.049 L
103.287 52.1414 L
103.693 52.2345 L
104.099 52.3281 L
104.505 52.4223 L
104.911 52.5171 L
105.316 52.6126 L
105.722 52.7086 L
106.128 52.8052 L
106.534 52.9024 L
106.94 53.0001 L
107.345 53.0985 L
107.751 53.1974 L
108.157 53.2969 L
108.563 53.397 L
108.969 53.4976 L
109.375 53.5988 L
109.78 53.7006 L
110.186 53.803 L
110.592 53.9059 L
110.998 54.0094 L
111.404 54.1134 L
111.809 54.2179 L
112.215 54.3231 L
112.621 54.4287 L
113.027 54.535 L
113.433 54.6417 L
113.839 54.749 L
114.244 54.8569 L
114.65 54.9653 L
115.056 55.0742 L
115.462 55.1837 L
115.868 55.2937 L
116.273 55.4042 L
116.679 55.5153 L
117.085 55.6269 L
117.491 55.739 L
117.897 55.8517 L
118.303 55.9649 L
118.708 56.0786 L
119.114 56.1928 L
119.52 56.3075 L
119.926 56.4228 L
120.332 56.5386 L
120.737 56.6548 L
121.143 56.7716 L
121.549 56.889 L
121.955 57.0068 L
122.361 57.1251 L
122.767 57.244 L
123.172 57.3633 L
123.578 57.4832 L
123.984 57.6035 L
124.39 57.7244 L
124.796 57.8457 L
125.201 57.9676 L
125.607 58.09 L
126.013 58.2128 L
126.419 58.3362 L
126.825 58.46 L
127.231 58.5844 L
127.636 58.7092 L
128.042 58.8345 L
128.448 58.9603 L
128.854 59.0866 L
129.26 59.2134 L
129.665 59.3407 L
130.071 59.4684 L
130.477 59.5966 L
130.883 59.7254 L
131.289 59.8546 L
131.695 59.9843 L
132.1 60.1144 L
132.506 60.2451 L
132.912 60.3762 L
133.318 60.5078 L
133.724 60.6399 L
134.129 60.7724 L
134.535 60.9054 L
134.941 61.0389 L
135.347 61.1729 L
135.753 61.3073 L
136.159 61.4422 L
136.564 61.5776 L
136.97 61.7135 L
137.376 61.8498 L
137.782 61.9866 L
138.188 62.1238 L
138.593 62.2615 L
138.999 62.3997 L
139.405 62.5383 L
139.811 62.6774 L
140.217 62.8169 L
140.623 62.957 L
141.028 63.0974 L
141.434 63.2384 L
141.84 63.3797 L
142.246 63.5216 L
142.652 63.6639 L
143.057 63.8066 L
143.463 63.9498 L
143.869 64.0935 L
144.275 64.2376 L
144.681 64.3822 L
145.087 64.5272 L
145.492 64.6727 L
145.898 64.8186 L
146.304 64.9649 L
146.71 65.1118 L
147.116 65.259 L
147.521 65.4067 L
147.927 65.5549 L
148.333 65.7035 L
148.739 65.8525 L
149.145 66.002 L
149.551 66.1519 L
149.956 66.3023 L
150.362 66.4531 L
150.768 66.6044 L
151.174 66.7561 L
151.58 66.9082 L
151.985 67.0608 L
152.391 67.2138 L
152.797 67.3672 L
153.203 67.5211 L
153.609 67.6754 L
154.015 67.8302 L
154.42 67.9854 L
154.826 68.141 L
155.232 68.2971 L
155.638 68.4536 L
156.044 68.6105 L
156.449 68.7679 L
156.855 68.9257 L
157.261 69.0839 L
157.667 69.2425 L
158.073 69.4016 L
158.479 69.5611 L
158.884 69.7211 L
159.29 69.8814 L
159.696 70.0423 L
160.102 70.2035 L
160.508 70.3651 L
160.913 70.5272 L
161.319 70.6897 L
161.725 70.8526 L
162.131 71.016 L
162.537 71.1797 L
162.943 71.344 L
163.348 71.5086 L
163.754 71.6736 L
164.16 71.8391 L
164.566 72.005 L
164.972 72.1713 L
165.377 72.338 L
165.783 72.5052 L
166.189 72.6727 L
166.595 72.8407 L
167.001 73.0091 L
167.407 73.1779 L
167.812 73.3472 L
168.218 73.5168 L
168.624 73.6869 L
169.03 73.8574 L
169.436 74.0283 L
169.841 74.1996 L
170.247 74.3714 L
170.653 74.5435 L
171.059 74.7161 L
171.465 74.889 L
171.871 75.0624 L
172.276 75.2362 L
172.682 75.4104 L
173.088 75.5851 L
173.494 75.7601 L
173.9 75.9355 L
174.305 76.1114 L
174.711 76.2877 L
175.117 76.4643 L
175.523 76.6414 L
175.929 76.8189 L
176.335 76.9968 L
176.74 77.1751 L
177.146 77.3538 L
177.552 77.5329 L
177.958 77.7125 L
178.364 77.8924 L
178.769 78.0727 L
179.175 78.2535 L
179.581 78.4346 L
179.987 78.6162 L
180.393 78.7981 L
180.799 78.9805 L
181.204 79.1633 L
181.61 79.3464 L
182.016 79.53 L
182.422 79.714 L
182.828 79.8983 L
183.233 80.0831 L
183.639 80.2683 L
184.045 80.4538 L
184.451 80.6398 L
184.857 80.8262 L
185.263 81.013 L
185.668 81.2001 L
186.074 81.3877 L
186.48 81.5757 L
186.886 81.7641 L
187.292 81.9528 L
187.697 82.142 L
188.103 82.3315 L
188.509 82.5215 L
188.915 82.7119 L
189.321 82.9026 L
189.727 83.0938 L
190.132 83.2853 L
190.538 83.4772 L
190.944 83.6696 L
191.35 83.8623 L
191.756 84.0554 L
192.161 84.2489 L
192.567 84.4428 L
192.973 84.6371 L
193.379 84.8318 L
193.785 85.0269 L
194.191 85.2224 L
194.596 85.4182 L
195.002 85.6145 L
195.408 85.8111 L
195.814 86.0082 L
196.22 86.2056 L
196.625 86.4034 L
197.031 86.6016 L
197.437 86.8002 L
197.843 86.9992 L
198.249 87.1986 L
198.655 87.3984 L
199.06 87.5985 L
199.466 87.7991 L
199.872 88 L
200.278 88.2013 L
200.684 88.403 L
201.089 88.6051 L
201.495 88.8076 L
201.901 89.0105 L
202.307 89.2137 L
202.713 89.4174 L
203.119 89.6214 L
203.524 89.8258 L
203.93 90.0306 L
204.336 90.2358 L
204.742 90.4413 L
205.148 90.6473 L
205.553 90.8536 L
205.959 91.0603 L
206.365 91.2674 L
206.771 91.4749 L
207.177 91.6828 L
207.583 91.891 L
207.988 92.0997 L
208.394 92.3087 L
208.8 92.5181 L
209.206 92.7279 L
209.612 92.938 L
210.017 93.1486 L
210.423 93.3595 L
210.829 93.5708 L
211.235 93.7824 L
211.641 93.9945 L
212.047 94.2069 L
212.452 94.4198 L
212.858 94.633 L
213.264 94.8465 L
213.67 95.0605 L
214.076 95.2748 L
214.481 95.4895 L
214.887 95.7046 L
215.293 95.9201 L
215.699 96.1359 L
216.105 96.3522 L
216.511 96.5688 L
216.916 96.7858 L
217.322 97.0031 L
217.728 97.2208 L
218.134 97.4389 L
218.54 97.6574 L
218.945 97.8763 L
219.351 98.0955 L
219.757 98.3151 L
220.163 98.5351 L
220.569 98.7555 L
220.975 98.9762 L
221.38 99.1973 L
221.786 99.4188 L
222.192 99.6406 L
222.598 99.8629 L
223.004 100.085 L
223.409 100.308 L
223.815 100.532 L
224.221 100.756 L
224.627 100.98 L
225.033 101.204 L
225.439 101.429 L
225.844 101.654 L
226.25 101.88 L
226.656 102.106 L
227.062 102.332 L
227.468 102.559 L
227.873 102.786 L
228.279 103.013 L
228.685 103.241 L
229.091 103.469 L
229.497 103.698 L
229.903 103.927 L
230.308 104.156 L
230.714 104.386 L
231.12 104.616 L
231.526 104.846 L
231.932 105.077 L
232.337 105.308 L
232.743 105.539 L
233.149 105.771 L
233.555 106.004 L
233.961 106.236 L
234.367 106.469 L
234.772 106.703 L
235.178 106.936 L
235.584 107.17 L
235.99 107.405 L
236.396 107.64 L
236.801 107.875 L
237.207 108.11 L
237.613 108.346 L
238.019 108.582 L
238.425 108.819 L
238.831 109.056 L
239.236 109.294 L
239.642 109.531 L
240.048 109.769 L
240.454 110.008 L
240.86 110.247 L
241.265 110.486 L
241.671 110.725 L
242.077 110.965 L
242.483 111.206 L
242.889 111.446 L
243.295 111.687 L
243.7 111.929 L
244.106 112.17 L
244.512 112.413 L
244.918 112.655 L
245.324 112.898 L
245.729 113.141 L
246.135 113.385 L
246.541 113.629 L
246.947 113.873 L
247.353 114.118 L
247.759 114.363 L
248.164 114.608 L
248.57 114.854 L
248.976 115.1 L
249.382 115.346 L
249.788 115.593 L
250.193 115.84 L
250.599 116.088 L
251.005 116.336 L
251.411 116.584 L
251.817 116.833 L
252.223 117.082 L
252.628 117.331 L
253.034 117.581 L
253.44 117.831 L
253.846 118.081 L
254.252 118.332 L
254.657 118.583 L
255.063 118.834 L
255.469 119.086 L
255.875 119.339 L
256.281 119.591 L
256.687 119.844 L
257.092 120.097 L
257.498 120.351 L
257.904 120.605 L
258.31 120.859 L
258.716 121.114 L
259.121 121.369 L
259.527 121.625 L
259.933 121.88 L
260.339 122.137 L
260.745 122.393 L
261.151 122.65 L
261.556 122.907 L
261.962 123.165 L
262.368 123.423 L
262.774 123.681 L
263.18 123.94 L
263.585 124.199 L
263.991 124.458 L
264.397 124.718 L
264.803 124.978 L
265.209 125.238 L
265.615 125.499 L
266.02 125.76 L
266.426 126.022 L
266.832 126.283 L
267.238 126.546 L
267.644 126.808 L
268.049 127.071 L
268.455 127.334 L
268.861 127.598 L
269.267 127.862 L
269.673 128.126 L
270.079 128.391 L
270.484 128.656 L
270.89 128.921 L
271.296 129.187 L
271.702 129.453 L
272.108 129.72 L
272.513 129.987 L
272.919 130.254 L
273.325 130.521 L
273.731 130.789 L
274.137 131.057 L
274.543 131.326 L
274.948 131.595 L
275.354 131.864 L
275.76 132.134 L
276.166 132.404 L
276.572 132.674 L
276.977 132.945 L
277.383 133.216 L
277.789 133.487 L
278.195 133.759 L
278.601 134.031 L
279.007 134.303 L
279.412 134.576 L
279.818 134.849 L
280.224 135.123 L
280.63 135.397 L
281.036 135.671 L
281.441 135.945 L
281.847 136.22 L
282.253 136.495 L
282.659 136.771 L
283.065 137.047 L
283.471 137.323 L
283.876 137.6 L
284.282 137.877 L
284.688 138.154 L
285.094 138.432 L
285.5 138.71 L
285.905 138.988 L
286.311 139.267 L
286.717 139.546 L
287.123 139.825 L
287.529 140.105 L
287.935 140.385 L
288.34 140.666 L
288.746 140.947 L
289.152 141.228 L
289.558 141.509 L
289.964 141.791 L
290.369 142.073 L
290.775 142.356 L
291.181 142.639 L
291.587 142.922 L
291.993 143.206 L
292.399 143.49 L
292.804 143.774 L
293.21 144.059 L
293.616 144.344 L
294.022 144.629 L
294.428 144.915 L
294.833 145.201 L
295.239 145.487 L
295.645 145.774 L
296.051 146.061 L
296.457 146.348 L
296.863 146.636 L
297.268 146.924 L
297.674 147.213 L
298.08 147.501 L
298.486 147.791 L
298.892 148.08 L
299.297 148.37 L
299.703 148.66 L
300.109 148.951 L
300.515 149.241 L
300.921 149.533 L
301.327 149.824 L
301.732 150.116 L
302.138 150.408 L
302.544 150.701 L
302.95 150.994 L
303.356 151.287 L
303.761 151.581 L
304.167 151.875 L
304.573 152.169 L
304.979 152.464 L
305.385 152.759 L
305.791 153.054 L
306.196 153.35 L
306.602 153.646 L
307.008 153.942 L
307.414 154.239 L
307.82 154.536 L
308.225 154.833 L
308.631 155.131 L
309.037 155.429 L
309.443 155.728 L
309.849 156.027 L
310.255 156.326 L
310.66 156.625 L
311.066 156.925 L
311.472 157.225 L
311.878 157.526 L
312.284 157.826 L
312.689 158.128 L
313.095 158.429 L
313.501 158.731 L
313.907 159.033 L
314.313 159.336 L
314.719 159.639 L
315.124 159.942 L
315.53 160.245 L
315.936 160.549 L
316.342 160.854 L
316.748 161.158 L
317.153 161.463 L
317.559 161.768 L
317.965 162.074 L
318.371 162.38 L
318.777 162.686 L
319.183 162.993 L
319.588 163.3 L
319.994 163.607 L
320.4 163.915 L
320.806 164.223 L
321.212 164.531 L
321.617 164.84 L
322.023 165.149 L
322.429 165.458 L
322.835 165.768 L
323.241 166.078 L
323.647 166.388 L
324.052 166.699 L
324.458 167.01 L
324.864 167.322 L
325.27 167.633 L
325.676 167.945 L
326.081 168.258 L
326.487 168.571 L
326.893 168.884 L
327.299 169.197 L
327.705 169.511 L
328.111 169.825 L
328.516 170.14 L
328.922 170.454 L
329.328 170.77 L
329.734 171.085 L
330.14 171.401 L
330.545 171.717 L
330.951 172.033 L
331.357 172.35 L
331.763 172.667 L
332.169 172.985 L
332.575 173.303 L
332.98 173.621 L
333.386 173.94 L
333.792 174.258 L
334.198 174.578 L
334.604 174.897 L
335.009 175.217 L
335.415 175.537 L
335.821 175.858 L
336.227 176.179 L
336.633 176.5 L
337.039 176.821 L
337.444 177.143 L
337.85 177.465 L
338.256 177.788 L
338.662 178.111 L
339.068 178.434 L
339.473 178.758 L
339.879 179.082 L
340.285 179.406 L
340.691 179.731 L
341.097 180.055 L
341.503 180.381 L
341.908 180.706 L
342.314 181.032 L
342.72 181.359 L
343.126 181.685 L
343.532 182.012 L
343.937 182.339 L
344.343 182.667 L
344.749 182.995 L
345.155 183.323 L
345.561 183.652 L
345.967 183.981 L
346.372 184.31 L
346.778 184.64 L
347.184 184.97 L
347.59 185.3 L
347.996 185.631 L
348.401 185.962 L
348.807 186.293 L
349.213 186.625 L
349.619 186.957 L
350.025 187.289 L
350.431 187.622 L
350.836 187.954 L
351.242 188.288 L
351.648 188.621 L
352.054 188.955 L
352.46 189.29 L
352.865 189.624 L
353.271 189.959 L
353.677 190.295 L
354.083 190.63 L
354.489 190.966 L
354.895 191.303 L
355.3 191.639 L
355.706 191.976 L
356.112 192.314 L
356.518 192.651 L
356.924 192.989 L
357.329 193.328 L
357.735 193.666 L
358.141 194.005 L
358.547 194.345 L
358.953 194.684 L
359.359 195.024 L
359.764 195.365 L
360.17 195.705 L
360.576 196.046 L
360.982 196.388 L
361.388 196.729 L
361.793 197.071 L
362.199 197.414 L
362.605 197.756 L
363.011 198.099 L
363.417 198.443 L
363.823 198.786 L
364.228 199.13 L
364.634 199.475 L
365.04 199.819 L
365.446 200.164 L
365.852 200.51 L
366.257 200.855 L
366.663 201.201 L
367.069 201.548 L
367.475 201.894 L
367.881 202.241 L
368.287 202.589 L
368.692 202.936 L
369.098 203.284 L
369.504 203.633 L
369.91 203.981 L
370.316 204.33 L
370.721 204.679 L
371.127 205.029 L
371.533 205.379 L
371.939 205.729 L
372.345 206.08 L
372.751 206.431 L
373.156 206.782 L
373.562 207.134 L
373.968 207.486 L
374.374 207.838 L
374.78 208.191 L
375.185 208.544 L
375.591 208.897 L
375.997 209.251 L
376.403 209.605 L
376.809 209.959 L
377.215 210.314 L
377.62 210.668 L
378.026 211.024 L
378.432 211.379 L
378.838 211.735 L
379.244 212.092 L
379.649 212.448 L
380.055 212.805 L
380.461 213.162 L
380.867 213.52 L
381.273 213.878 L
381.679 214.236 L
382.084 214.595 L
382.49 214.954 L
382.896 215.313 L
383.302 215.672 L
383.708 216.032 L
384.113 216.393 L
384.519 216.753 L
384.925 217.114 L
385.331 217.475 L
385.737 217.837 L
386.143 218.199 L
386.548 218.561 L
386.954 218.923 L
387.36 219.286 L
387.766 219.649 L
388.172 220.013 L
388.577 220.377 L
388.983 220.741 L
389.389 221.105 L
389.795 221.47 L
390.201 221.835 L
390.607 222.201 L
391.012 222.567 L
391.418 222.933 L
391.824 223.299 L
392.23 223.666 L
392.636 224.033 L
393.041 224.401 L
393.447 224.769 L
393.853 225.137 L
394.259 225.505 L
394.665 225.874 L
395.071 226.243 L
395.476 226.613 L
395.882 226.982 L
396.288 227.353 L
396.694 227.723 L
397.1 228.094 L
397.505 228.465 L
397.911 228.836 L
398.317 229.208 L
398.723 229.58 L
399.129 229.952 L
399.535 230.325 L
399.94 230.698 L
400.346 231.072 L
400.752 231.445 L
401.158 231.819 L
401.564 232.194 L
401.969 232.568 L
402.375 232.943 L
402.781 233.319 L
403.187 233.694 L
403.593 234.07 L
403.999 234.447 L
404.404 234.823 L
404.81 235.2 L
405.216 235.578 L
405.622 235.955 L
406.028 236.333 L
406.433 236.712 L
406.839 237.09 L
407.245 237.469 L
407.651 237.849 L
408.057 238.228 L
408.463 238.608 L
408.868 238.988 L
409.274 239.369 L
409.68 239.75 L
410.086 240.131 L
410.492 240.513 L
410.897 240.895 L
411.303 241.277 L
411.709 241.659 L
412.115 242.042 L
412.521 242.425 L
412.927 242.809 L
413.332 243.193 L
413.738 243.577 L
414.144 243.962 L
414.55 244.346 L
414.956 244.732 L
415.361 245.117 L
415.767 245.503 L
416.173 245.889 L
416.579 246.275 L
416.985 246.662 L
417.391 247.049 L
417.796 247.437 L
418.202 247.825 L
418.608 248.213 L
419.014 248.601 L
419.42 248.99 L
419.825 249.379 L
420.231 249.768 L
420.637 250.158 L
421.043 250.548 L
421.449 250.938 L
421.855 251.329 L
422.26 251.72 L
422.666 252.112 L
423.072 252.503 L
423.478 252.895 L
423.884 253.288 L
424.289 253.68 L
424.695 254.073 L
425.101 254.466 L
425.507 254.86 L
425.913 255.254 L
426.319 255.648 L
426.724 256.043 L
427.13 256.438 L
427.536 256.833 L
427.942 257.229 L
428.348 257.625 L
428.753 258.021 L
429.159 258.417 L
429.565 258.814 L
429.971 259.212 L
430.377 259.609 L
430.783 260.007 L
431.188 260.405 L
431.594 260.804 L
432 261.202 L
432.406 261.602 L
432.812 262.001 L
433.217 262.401 L
433.623 262.801 L
434.029 263.201 L
434.435 263.602 L
434.841 264.003 L
435.247 264.405 L
435.652 264.807 L
436.058 265.209 L
436.464 265.611 L
436.87 266.014 L
437.276 266.417 L
437.681 266.82 L
438.087 267.224 L
438.493 267.628 L
438.899 268.032 L
439.305 268.437 L
439.711 268.842 L
440.116 269.247 L
440.522 269.653 L
440.928 270.059 L
441.334 270.465 L
441.74 270.872 L
442.145 271.279 L
442.551 271.686 L
442.957 272.094 L
443.363 272.501 L
443.769 272.91 L
444.175 273.318 L
444.58 273.727 L
444.986 274.136 L
445.392 274.546 L
445.798 274.956 L
446.204 275.366 L
446.609 275.776 L
447.015 276.187 L
447.421 276.598 L
447.827 277.01 L
448.233 277.422 L
448.639 277.834 L
449.044 278.246 L
449.45 278.659 L
449.856 279.072 L
450.262 279.485 L
450.668 279.899 L
451.073 280.313 L
451.479 280.727 L
451.885 281.142 L
452.291 281.557 L
452.697 281.973 L
453.103 282.388 L
453.508 282.804 L
453.914 283.221 L
454.32 283.637 L
454.726 284.054 L
455.132 284.471 L
455.537 284.889 L
455.943 285.307 L
456.349 285.725 L
456.755 286.144 L
457.161 286.563 L
457.567 286.982 L
457.972 287.401 L
458.378 287.821 L
458.784 288.241 L
459.19 288.662 L
459.596 289.083 L
460.001 289.504 L
460.407 289.925 L
460.813 290.347 L
461.219 290.769 L
461.625 291.192 L
462.031 291.615 L
462.436 292.038 L
462.842 292.461 L
463.248 292.885 L
463.654 293.309 L
464.06 293.733 L
464.465 294.158 L
464.871 294.583 L
465.277 295.008 L
465.683 295.434 L
466.089 295.86 L
466.495 296.286 L
466.9 296.713 L
467.306 297.14 L
467.712 297.567 L
468.118 297.995 L
468.524 298.422 L
468.929 298.851 L
469.335 299.279 L
469.741 299.708 L
470.147 300.137 L
470.553 300.567 L
470.959 300.997 L
471.364 301.427 L
471.77 301.857 L
472.176 302.288 L
472.582 302.719 L
472.988 303.151 L
473.393 303.582 L
473.799 304.015 L
474.205 304.447 L
474.611 304.88 L
475.017 305.313 L
475.423 305.746 L
475.828 306.18 L
476.234 306.614 L
476.64 307.048 L
477.046 307.483 L
477.452 307.918 L
477.857 308.353 L
478.263 308.789 L
478.669 309.225 L
479.075 309.661 L
479.481 310.097 L
479.887 310.534 L
480.292 310.972 L
480.698 311.409 L
481.104 311.847 L
481.51 312.285 L
481.916 312.724 L
482.321 313.163 L
482.727 313.602 L
483.133 314.041 L
483.539 314.481 L
483.945 314.921 L
484.351 315.362 L
484.756 315.802 L
485.162 316.243 L
485.568 316.685 L
485.974 317.126 L
486.38 317.568 L
486.785 318.011 L
487.191 318.453 L
487.597 318.896 L
488.003 319.34 L
488.409 319.783 L
488.815 320.227 L
489.22 320.672 L
489.626 321.116 L
490.032 321.561 L
490.438 322.006 L
490.844 322.452 L
491.249 322.898 L
491.655 323.344 L
492.061 323.791 L
492.467 324.237 L
492.873 324.685 L
493.279 325.132 L
493.684 325.58 L
494.09 326.028 L
494.496 326.476 L
494.902 326.925 L
495.308 327.374 L
495.713 327.824 L
496.119 328.273 L
496.525 328.723 L
496.931 329.174 L
497.337 329.624 L
497.743 330.075 L
498.148 330.527 L
498.554 330.978 L
498.96 331.43 L
499.366 331.883 L
499.772 332.335 L
500.177 332.788 L
500.583 333.241 L
500.989 333.695 L
501.395 334.149 L
501.801 334.603 L
502.207 335.058 L
502.612 335.512 L
503.018 335.968 L
503.424 336.423 L
503.83 336.879 L
504.236 337.335 L
504.641 337.791 L
505.047 338.248 L
505.453 338.705 L
505.859 339.163 L
506.265 339.62 L
506.671 340.078 L
507.076 340.537 L
507.482 340.995 L
507.888 341.454 L
508.294 341.914 L
508.7 342.373 L
509.105 342.833 L
509.511 343.293 L
509.917 343.754 L
510.323 344.215 L
510.729 344.676 L
511.135 345.138 L
511.54 345.599 L
511.946 346.062 L
512.352 346.524 L
512.758 346.987 L
513.164 347.45 L
513.569 347.914 L
513.975 348.377 L
514.381 348.841 L
514.787 349.306 L
515.193 349.771 L
515.599 350.236 L
516.004 350.701 L
516.41 351.167 L
516.816 351.633 L
517.222 352.099 L
517.628 352.566 L
518.033 353.033 L
518.439 353.5 L
518.845 353.967 L
519.251 354.435 L
519.657 354.904 L
520.063 355.372 L
520.468 355.841 L
520.874 356.31 L
521.28 356.78 LE
0.31792 0.31792 0.31792 C
75.2858 47.5449 LS
75.6916 47.5764 L
76.0975 47.612 L
76.5033 47.6508 L
76.9091 47.6924 L
77.3149 47.7363 L
77.7207 47.7825 L
78.1265 47.8306 L
78.5324 47.8807 L
78.9382 47.9326 L
79.344 47.9862 L
79.7498 48.0414 L
80.1556 48.0982 L
80.5615 48.1564 L
80.9673 48.2161 L
81.3731 48.2773 L
81.7789 48.3397 L
82.1847 48.4035 L
82.5905 48.4686 L
82.9964 48.5349 L
83.4022 48.6025 L
83.808 48.6712 L
84.2138 48.7412 L
84.6196 48.8122 L
85.0255 48.8845 L
85.4313 48.9578 L
85.8371 49.0322 L
86.2429 49.1077 L
86.6487 49.1842 L
87.0546 49.2618 L
87.4604 49.3404 L
87.8662 49.42 L
88.272 49.5007 L
88.6778 49.5823 L
89.0836 49.6648 L
89.4894 49.7484 L
89.8953 49.8329 L
90.3011 49.9183 L
90.7069 50.0047 L
91.1127 50.0919 L
91.5186 50.1801 L
91.9244 50.2692 L
92.3302 50.3592 L
92.736 50.45 L
93.1418 50.5418 L
93.5476 50.6344 L
93.9534 50.7278 L
94.3593 50.8221 L
94.7651 50.9173 L
95.1709 51.0133 L
95.5767 51.1101 L
95.9825 51.2078 L
96.3884 51.3063 L
96.7942 51.4055 L
97.2 51.5056 L
97.6058 51.6065 L
98.0116 51.7082 L
98.4174 51.8107 L
98.8233 51.914 L
99.2291 52.018 L
99.6349 52.1228 L
100.041 52.2284 L
100.447 52.3348 L
100.852 52.4419 L
101.258 52.5498 L
101.664 52.6584 L
102.07 52.7678 L
102.476 52.8779 L
102.881 52.9888 L
103.287 53.1004 L
103.693 53.2127 L
104.099 53.3258 L
104.505 53.4396 L
104.911 53.5541 L
105.316 53.6693 L
105.722 53.7852 L
106.128 53.9019 L
106.534 54.0192 L
106.94 54.1373 L
107.345 54.256 L
107.751 54.3755 L
108.157 54.4957 L
108.563 54.6165 L
108.969 54.738 L
109.375 54.8603 L
109.78 54.9831 L
110.186 55.1067 L
110.592 55.231 L
110.998 55.3559 L
111.404 55.4815 L
111.809 55.6078 L
112.215 55.7347 L
112.621 55.8623 L
113.027 55.9906 L
113.433 56.1195 L
113.839 56.2491 L
114.244 56.3793 L
114.65 56.5102 L
115.056 56.6418 L
115.462 56.774 L
115.868 56.9068 L
116.273 57.0403 L
116.679 57.1744 L
117.085 57.3091 L
117.491 57.4445 L
117.897 57.5806 L
118.303 57.7172 L
118.708 57.8545 L
119.114 57.9924 L
119.52 58.131 L
119.926 58.2702 L
120.332 58.41 L
120.737 58.5504 L
121.143 58.6914 L
121.549 58.8331 L
121.955 58.9754 L
122.361 59.1182 L
122.767 59.2617 L
123.172 59.4059 L
123.578 59.5506 L
123.984 59.6959 L
124.39 59.8419 L
124.796 59.9884 L
125.201 60.1355 L
125.607 60.2833 L
126.013 60.4316 L
126.419 60.5806 L
126.825 60.7301 L
127.231 60.8802 L
127.636 61.031 L
128.042 61.1823 L
128.448 61.3342 L
128.854 61.4867 L
129.26 61.6398 L
129.665 61.7935 L
130.071 61.9478 L
130.477 62.1026 L
130.883 62.2581 L
131.289 62.4141 L
131.695 62.5707 L
132.1 62.7279 L
132.506 62.8856 L
132.912 63.0439 L
133.318 63.2029 L
133.724 63.3623 L
134.129 63.5224 L
134.535 63.683 L
134.941 63.8442 L
135.347 64.006 L
135.753 64.1683 L
136.159 64.3312 L
136.564 64.4947 L
136.97 64.6587 L
137.376 64.8233 L
137.782 64.9884 L
138.188 65.1542 L
138.593 65.3204 L
138.999 65.4873 L
139.405 65.6547 L
139.811 65.8226 L
140.217 65.9911 L
140.623 66.1602 L
141.028 66.3298 L
141.434 66.5 L
141.84 66.6707 L
142.246 66.842 L
142.652 67.0138 L
143.057 67.1862 L
143.463 67.3591 L
143.869 67.5326 L
144.275 67.7066 L
144.681 67.8812 L
145.087 68.0563 L
145.492 68.2319 L
145.898 68.4081 L
146.304 68.5849 L
146.71 68.7621 L
147.116 68.9399 L
147.521 69.1183 L
147.927 69.2972 L
148.333 69.4766 L
148.739 69.6566 L
149.145 69.8371 L
149.551 70.0181 L
149.956 70.1997 L
150.362 70.3818 L
150.768 70.5645 L
151.174 70.7477 L
151.58 70.9313 L
151.985 71.1156 L
152.391 71.3003 L
152.797 71.4856 L
153.203 71.6714 L
153.609 71.8578 L
154.015 72.0447 L
154.42 72.2321 L
154.826 72.42 L
155.232 72.6084 L
155.638 72.7974 L
156.044 72.9869 L
156.449 73.1769 L
156.855 73.3674 L
157.261 73.5585 L
157.667 73.7501 L
158.073 73.9422 L
158.479 74.1348 L
158.884 74.3279 L
159.29 74.5216 L
159.696 74.7157 L
160.102 74.9104 L
160.508 75.1056 L
160.913 75.3013 L
161.319 75.4975 L
161.725 75.6943 L
162.131 75.8915 L
162.537 76.0893 L
162.943 76.2876 L
163.348 76.4863 L
163.754 76.6856 L
164.16 76.8854 L
164.566 77.0857 L
164.972 77.2866 L
165.377 77.4879 L
165.783 77.6897 L
166.189 77.8921 L
166.595 78.0949 L
167.001 78.2982 L
167.407 78.5021 L
167.812 78.7065 L
168.218 78.9113 L
168.624 79.1167 L
169.03 79.3226 L
169.436 79.5289 L
169.841 79.7358 L
170.247 79.9432 L
170.653 80.151 L
171.059 80.3594 L
171.465 80.5683 L
171.871 80.7776 L
172.276 80.9875 L
172.682 81.1979 L
173.088 81.4087 L
173.494 81.6201 L
173.9 81.8319 L
174.305 82.0443 L
174.711 82.2571 L
175.117 82.4704 L
175.523 82.6843 L
175.929 82.8986 L
176.335 83.1134 L
176.74 83.3287 L
177.146 83.5445 L
177.552 83.7608 L
177.958 83.9776 L
178.364 84.1948 L
178.769 84.4126 L
179.175 84.6308 L
179.581 84.8496 L
179.987 85.0688 L
180.393 85.2885 L
180.799 85.5087 L
181.204 85.7294 L
181.61 85.9506 L
182.016 86.1722 L
182.422 86.3944 L
182.828 86.617 L
183.233 86.8401 L
183.639 87.0637 L
184.045 87.2878 L
184.451 87.5124 L
184.857 87.7374 L
185.263 87.963 L
185.668 88.189 L
186.074 88.4155 L
186.48 88.6424 L
186.886 88.8699 L
187.292 89.0978 L
187.697 89.3262 L
188.103 89.5551 L
188.509 89.7845 L
188.915 90.0144 L
189.321 90.2447 L
189.727 90.4755 L
190.132 90.7068 L
190.538 90.9386 L
190.944 91.1708 L
191.35 91.4035 L
191.756 91.6367 L
192.161 91.8704 L
192.567 92.1045 L
192.973 92.3391 L
193.379 92.5742 L
193.785 92.8098 L
194.191 93.0458 L
194.596 93.2823 L
195.002 93.5193 L
195.408 93.7568 L
195.814 93.9947 L
196.22 94.2331 L
196.625 94.472 L
197.031 94.7113 L
197.437 94.9511 L
197.843 95.1914 L
198.249 95.4321 L
198.655 95.6734 L
199.06 95.9151 L
199.466 96.1572 L
199.872 96.3998 L
200.278 96.6429 L
200.684 96.8865 L
201.089 97.1305 L
201.495 97.375 L
201.901 97.62 L
202.307 97.8654 L
202.713 98.1113 L
203.119 98.3577 L
203.524 98.6045 L
203.93 98.8518 L
204.336 99.0996 L
204.742 99.3478 L
205.148 99.5965 L
205.553 99.8456 L
205.959 100.095 L
206.365 100.345 L
206.771 100.596 L
207.177 100.847 L
207.583 101.098 L
207.988 101.35 L
208.394 101.603 L
208.8 101.855 L
209.206 102.109 L
209.612 102.362 L
210.017 102.617 L
210.423 102.871 L
210.829 103.127 L
211.235 103.382 L
211.641 103.638 L
212.047 103.895 L
212.452 104.152 L
212.858 104.409 L
213.264 104.667 L
213.67 104.925 L
214.076 105.184 L
214.481 105.443 L
214.887 105.703 L
215.293 105.963 L
215.699 106.224 L
216.105 106.485 L
216.511 106.747 L
216.916 107.009 L
217.322 107.271 L
217.728 107.534 L
218.134 107.797 L
218.54 108.061 L
218.945 108.325 L
219.351 108.59 L
219.757 108.855 L
220.163 109.121 L
220.569 109.387 L
220.975 109.654 L
221.38 109.921 L
221.786 110.188 L
222.192 110.456 L
222.598 110.724 L
223.004 110.993 L
223.409 111.262 L
223.815 111.532 L
224.221 111.802 L
224.627 112.073 L
225.033 112.344 L
225.439 112.615 L
225.844 112.887 L
226.25 113.16 L
226.656 113.433 L
227.062 113.706 L
227.468 113.98 L
227.873 114.254 L
228.279 114.528 L
228.685 114.803 L
229.091 115.079 L
229.497 115.355 L
229.903 115.631 L
230.308 115.908 L
230.714 116.186 L
231.12 116.463 L
231.526 116.742 L
231.932 117.02 L
232.337 117.299 L
232.743 117.579 L
233.149 117.859 L
233.555 118.139 L
233.961 118.42 L
234.367 118.701 L
234.772 118.983 L
235.178 119.265 L
235.584 119.548 L
235.99 119.831 L
236.396 120.115 L
236.801 120.399 L
237.207 120.683 L
237.613 120.968 L
238.019 121.253 L
238.425 121.539 L
238.831 121.825 L
239.236 122.112 L
239.642 122.399 L
240.048 122.686 L
240.454 122.974 L
240.86 123.263 L
241.265 123.552 L
241.671 123.841 L
242.077 124.131 L
242.483 124.421 L
242.889 124.711 L
243.295 125.002 L
243.7 125.294 L
244.106 125.586 L
244.512 125.878 L
244.918 126.171 L
245.324 126.464 L
245.729 126.758 L
246.135 127.052 L
246.541 127.346 L
246.947 127.641 L
247.353 127.937 L
247.759 128.233 L
248.164 128.529 L
248.57 128.826 L
248.976 129.123 L
249.382 129.421 L
249.788 129.719 L
250.193 130.017 L
250.599 130.316 L
251.005 130.615 L
251.411 130.915 L
251.817 131.215 L
252.223 131.516 L
252.628 131.817 L
253.034 132.119 L
253.44 132.42 L
253.846 132.723 L
254.252 133.026 L
254.657 133.329 L
255.063 133.633 L
255.469 133.937 L
255.875 134.241 L
256.281 134.546 L
256.687 134.852 L
257.092 135.158 L
257.498 135.464 L
257.904 135.771 L
258.31 136.078 L
258.716 136.385 L
259.121 136.693 L
259.527 137.002 L
259.933 137.311 L
260.339 137.62 L
260.745 137.93 L
261.151 138.24 L
261.556 138.55 L
261.962 138.861 L
262.368 139.173 L
262.774 139.485 L
263.18 139.797 L
263.585 140.11 L
263.991 140.423 L
264.397 140.737 L
264.803 141.051 L
265.209 141.365 L
265.615 141.68 L
266.02 141.995 L
266.426 142.311 L
266.832 142.627 L
267.238 142.944 L
267.644 143.261 L
268.049 143.578 L
268.455 143.896 L
268.861 144.215 L
269.267 144.533 L
269.673 144.853 L
270.079 145.172 L
270.484 145.492 L
270.89 145.813 L
271.296 146.134 L
271.702 146.455 L
272.108 146.777 L
272.513 147.099 L
272.919 147.421 L
273.325 147.744 L
273.731 148.068 L
274.137 148.392 L
274.543 148.716 L
274.948 149.041 L
275.354 149.366 L
275.76 149.691 L
276.166 150.017 L
276.572 150.344 L
276.977 150.671 L
277.383 150.998 L
277.789 151.326 L
278.195 151.654 L
278.601 151.982 L
279.007 152.311 L
279.412 152.641 L
279.818 152.97 L
280.224 153.301 L
280.63 153.631 L
281.036 153.962 L
281.441 154.294 L
281.847 154.626 L
282.253 154.958 L
282.659 155.291 L
283.065 155.624 L
283.471 155.958 L
283.876 156.292 L
284.282 156.626 L
284.688 156.961 L
285.094 157.297 L
285.5 157.632 L
285.905 157.968 L
286.311 158.305 L
286.717 158.642 L
287.123 158.979 L
287.529 159.317 L
287.935 159.655 L
288.34 159.994 L
288.746 160.333 L
289.152 160.673 L
289.558 161.013 L
289.964 161.353 L
290.369 161.694 L
290.775 162.035 L
291.181 162.377 L
291.587 162.719 L
291.993 163.061 L
292.399 163.404 L
292.804 163.747 L
293.21 164.091 L
293.616 164.435 L
294.022 164.78 L
294.428 165.125 L
294.833 165.47 L
295.239 165.816 L
295.645 166.162 L
296.051 166.509 L
296.457 166.856 L
296.863 167.203 L
297.268 167.551 L
297.674 167.899 L
298.08 168.248 L
298.486 168.597 L
298.892 168.947 L
299.297 169.297 L
299.703 169.647 L
300.109 169.998 L
300.515 170.349 L
300.921 170.701 L
301.327 171.053 L
301.732 171.405 L
302.138 171.758 L
302.544 172.112 L
302.95 172.465 L
303.356 172.819 L
303.761 173.174 L
304.167 173.529 L
304.573 173.884 L
304.979 174.24 L
305.385 174.596 L
305.791 174.953 L
306.196 175.31 L
306.602 175.668 L
307.008 176.025 L
307.414 176.384 L
307.82 176.742 L
308.225 177.102 L
308.631 177.461 L
309.037 177.821 L
309.443 178.181 L
309.849 178.542 L
310.255 178.903 L
310.66 179.265 L
311.066 179.627 L
311.472 179.989 L
311.878 180.352 L
312.284 180.716 L
312.689 181.079 L
313.095 181.443 L
313.501 181.808 L
313.907 182.173 L
314.313 182.538 L
314.719 182.904 L
315.124 183.27 L
315.53 183.637 L
315.936 184.004 L
316.342 184.371 L
316.748 184.739 L
317.153 185.107 L
317.559 185.476 L
317.965 185.845 L
318.371 186.214 L
318.777 186.584 L
319.183 186.954 L
319.588 187.325 L
319.994 187.696 L
320.4 188.067 L
320.806 188.439 L
321.212 188.812 L
321.617 189.184 L
322.023 189.558 L
322.429 189.931 L
322.835 190.305 L
323.241 190.68 L
323.647 191.054 L
324.052 191.43 L
324.458 191.805 L
324.864 192.181 L
325.27 192.558 L
325.676 192.934 L
326.081 193.312 L
326.487 193.689 L
326.893 194.067 L
327.299 194.446 L
327.705 194.825 L
328.111 195.204 L
328.516 195.584 L
328.922 195.964 L
329.328 196.344 L
329.734 196.725 L
330.14 197.107 L
330.545 197.489 L
330.951 197.871 L
331.357 198.253 L
331.763 198.636 L
332.169 199.02 L
332.575 199.403 L
332.98 199.788 L
333.386 200.172 L
333.792 200.557 L
334.198 200.943 L
334.604 201.329 L
335.009 201.715 L
335.415 202.101 L
335.821 202.489 L
336.227 202.876 L
336.633 203.264 L
337.039 203.652 L
337.444 204.041 L
337.85 204.43 L
338.256 204.819 L
338.662 205.209 L
339.068 205.6 L
339.473 205.99 L
339.879 206.382 L
340.285 206.773 L
340.691 207.165 L
341.097 207.557 L
341.503 207.95 L
341.908 208.343 L
342.314 208.737 L
342.72 209.131 L
343.126 209.525 L
343.532 209.92 L
343.937 210.315 L
344.343 210.711 L
344.749 211.107 L
345.155 211.503 L
345.561 211.9 L
345.967 212.297 L
346.372 212.695 L
346.778 213.093 L
347.184 213.491 L
347.59 213.89 L
347.996 214.289 L
348.401 214.689 L
348.807 215.089 L
349.213 215.49 L
349.619 215.89 L
350.025 216.292 L
350.431 216.693 L
350.836 217.095 L
351.242 217.498 L
351.648 217.901 L
352.054 218.304 L
352.46 218.708 L
352.865 219.112 L
353.271 219.516 L
353.677 219.921 L
354.083 220.327 L
354.489 220.732 L
354.895 221.138 L
355.3 221.545 L
355.706 221.952 L
356.112 222.359 L
356.518 222.767 L
356.924 223.175 L
357.329 223.584 L
357.735 223.993 L
358.141 224.402 L
358.547 224.812 L
358.953 225.222 L
359.359 225.632 L
359.764 226.043 L
360.17 226.455 L
360.576 226.866 L
360.982 227.279 L
361.388 227.691 L
361.793 228.104 L
362.199 228.517 L
362.605 228.931 L
363.011 229.345 L
363.417 229.76 L
363.823 230.175 L
364.228 230.59 L
364.634 231.006 L
365.04 231.422 L
365.446 231.839 L
365.852 232.256 L
366.257 232.673 L
366.663 233.091 L
367.069 233.509 L
367.475 233.928 L
367.881 234.347 L
368.287 234.766 L
368.692 235.186 L
369.098 235.606 L
369.504 236.027 L
369.91 236.448 L
370.316 236.869 L
370.721 237.291 L
371.127 237.713 L
371.533 238.136 L
371.939 238.559 L
372.345 238.982 L
372.751 239.406 L
373.156 239.83 L
373.562 240.255 L
373.968 240.68 L
374.374 241.105 L
374.78 241.531 L
375.185 241.957 L
375.591 242.384 L
375.997 242.811 L
376.403 243.238 L
376.809 243.666 L
377.215 244.094 L
377.62 244.523 L
378.026 244.952 L
378.432 245.381 L
378.838 245.811 L
379.244 246.241 L
379.649 246.672 L
380.055 247.103 L
380.461 247.534 L
380.867 247.966 L
381.273 248.398 L
381.679 248.831 L
382.084 249.264 L
382.49 249.697 L
382.896 250.131 L
383.302 250.565 L
383.708 250.999 L
384.113 251.434 L
384.519 251.87 L
384.925 252.306 L
385.331 252.742 L
385.737 253.178 L
386.143 253.615 L
386.548 254.053 L
386.954 254.49 L
387.36 254.929 L
387.766 255.367 L
388.172 255.806 L
388.577 256.246 L
388.983 256.685 L
389.389 257.125 L
389.795 257.566 L
390.201 258.007 L
390.607 258.448 L
391.012 258.89 L
391.418 259.332 L
391.824 259.775 L
392.23 260.218 L
392.636 260.661 L
393.041 261.105 L
393.447 261.549 L
393.853 261.993 L
394.259 262.438 L
394.665 262.884 L
395.071 263.329 L
395.476 263.775 L
395.882 264.222 L
396.288 264.669 L
396.694 265.116 L
397.1 265.564 L
397.505 266.012 L
397.911 266.46 L
398.317 266.909 L
398.723 267.359 L
399.129 267.808 L
399.535 268.258 L
399.94 268.709 L
400.346 269.16 L
400.752 269.611 L
401.158 270.062 L
401.564 270.515 L
401.969 270.967 L
402.375 271.42 L
402.781 271.873 L
403.187 272.327 L
403.593 272.781 L
403.999 273.235 L
404.404 273.69 L
404.81 274.145 L
405.216 274.601 L
405.622 275.057 L
406.028 275.513 L
406.433 275.97 L
406.839 276.427 L
407.245 276.885 L
407.651 277.343 L
408.057 277.801 L
408.463 278.26 L
408.868 278.719 L
409.274 279.179 L
409.68 279.639 L
410.086 280.099 L
410.492 280.56 L
410.897 281.021 L
411.303 281.482 L
411.709 281.944 L
412.115 282.407 L
412.521 282.869 L
412.927 283.333 L
413.332 283.796 L
413.738 284.26 L
414.144 284.724 L
414.55 285.189 L
414.956 285.654 L
415.361 286.119 L
415.767 286.585 L
416.173 287.052 L
416.579 287.518 L
416.985 287.985 L
417.391 288.453 L
417.796 288.921 L
418.202 289.389 L
418.608 289.857 L
419.014 290.327 L
419.42 290.796 L
419.825 291.266 L
420.231 291.736 L
420.637 292.207 L
421.043 292.678 L
421.449 293.149 L
421.855 293.621 L
422.26 294.093 L
422.666 294.565 L
423.072 295.038 L
423.478 295.512 L
423.884 295.985 L
424.289 296.46 L
424.695 296.934 L
425.101 297.409 L
425.507 297.884 L
425.913 298.36 L
426.319 298.836 L
426.724 299.313 L
427.13 299.79 L
427.536 300.267 L
427.942 300.745 L
428.348 301.223 L
428.753 301.701 L
429.159 302.18 L
429.565 302.659 L
429.971 303.139 L
430.377 303.619 L
430.783 304.099 L
431.188 304.58 L
431.594 305.061 L
432 305.543 L
432.406 306.025 L
432.812 306.507 L
433.217 306.99 L
433.623 307.473 L
434.029 307.957 L
434.435 308.441 L
434.841 308.925 L
435.247 309.41 L
435.652 309.895 L
436.058 310.38 L
436.464 310.866 L
436.87 311.352 L
437.276 311.839 L
437.681 312.326 L
438.087 312.814 L
438.493 313.302 L
438.899 313.79 L
439.305 314.278 L
439.711 314.767 L
440.116 315.257 L
440.522 315.747 L
440.928 316.237 L
441.334 316.727 L
441.74 317.218 L
442.145 317.71 L
442.551 318.202 L
442.957 318.694 L
443.363 319.186 L
443.769 319.679 L
444.175 320.173 L
444.58 320.666 L
444.986 321.16 L
445.392 321.655 L
445.798 322.15 L
446.204 322.645 L
446.609 323.141 L
447.015 323.637 L
447.421 324.133 L
447.827 324.63 L
448.233 325.127 L
448.639 325.625 L
449.044 326.123 L
449.45 326.621 L
449.856 327.12 L
450.262 327.619 L
450.668 328.119 L
451.073 328.619 L
451.479 329.119 L
451.885 329.62 L
452.291 330.121 L
452.697 330.623 L
453.103 331.125 L
453.508 331.627 L
453.914 332.13 L
454.32 332.633 L
454.726 333.136 L
455.132 333.64 L
455.537 334.144 L
455.943 334.649 L
456.349 335.154 L
456.755 335.659 L
457.161 336.165 L
457.567 336.671 L
457.972 337.178 L
458.378 337.685 L
458.784 338.192 L
459.19 338.7 L
459.596 339.208 L
460.001 339.717 L
460.407 340.226 L
460.813 340.735 L
461.219 341.245 L
461.625 341.755 L
462.031 342.265 L
462.436 342.776 L
462.842 343.288 L
463.248 343.799 L
463.654 344.311 L
464.06 344.824 L
464.465 345.336 L
464.871 345.85 L
465.277 346.363 L
465.683 346.877 L
466.089 347.392 L
466.495 347.906 L
466.9 348.422 L
467.306 348.937 L
467.712 349.453 L
468.118 349.969 L
468.524 350.486 L
468.929 351.003 L
469.335 351.521 L
469.741 352.038 L
470.147 352.557 L
470.553 353.075 L
470.959 353.594 L
471.364 354.114 L
471.77 354.634 L
472.176 355.154 L
472.582 355.674 L
472.988 356.195 L
473.393 356.717 L
473.799 357.239 L
474.205 357.761 L
474.611 358.283 L
475.017 358.806 L
475.423 359.329 L
475.828 359.853 L
476.234 360.377 L
476.64 360.902 L
477.046 361.426 L
477.452 361.952 L
477.857 362.477 L
478.263 363.003 L
478.669 363.53 L
479.075 364.057 L
479.481 364.584 L
479.887 365.111 L
480.292 365.639 L
480.698 366.168 L
481.104 366.696 L
481.51 367.225 L
481.916 367.755 L
482.321 368.285 L
482.727 368.815 L
483.133 369.346 L
483.539 369.877 L
483.945 370.408 L
484.351 370.94 L
484.756 371.472 L
485.162 372.005 L
485.568 372.538 L
485.974 373.071 L
486.38 373.605 L
486.785 374.139 L
487.191 374.674 L
487.597 375.209 L
488.003 375.744 L
488.409 376.28 L
488.815 376.816 L
489.22 377.352 L
489.626 377.889 L
490.032 378.426 L
490.438 378.964 L
490.844 379.502 L
491.249 380.04 L
491.655 380.579 L
492.061 381.118 L
492.467 381.658 L
492.873 382.198 L
493.279 382.738 L
493.684 383.279 L
494.09 383.82 L
494.496 384.361 L
494.902 384.903 L
495.308 385.446 L
495.713 385.988 L
496.119 386.531 L
496.525 387.075 L
496.931 387.618 L
497.337 388.163 L
497.743 388.707 L
498.148 389.252 L
498.554 389.798 L
498.96 390.343 L
499.366 390.889 L
499.772 391.436 L
500.177 391.983 L
500.583 392.53 L
500.989 393.078 L
501.395 393.626 L
501.801 394.174 L
502.207 394.723 L
502.612 395.272 L
503.018 395.822 L
503.424 396.372 L
503.83 396.922 L
504.236 397.473 L
504.641 398.024 L
505.047 398.576 L
505.453 399.128 L
505.859 399.68 L
506.059 399.952 LE
grestore
grestore
showpage
cleartomark
%%PageTrailer
%%Trailer
end
%%EOF
