Part,Needed quantity,Minimum purchase quantity,Purchase quantity (worst case),Unit cost,Cost (worst case),Comments
1N4148,6,10,10,0.05,0.50,
1598B,1,1,1,12.80,12.80,
22-01-2025,8,5,10,0.20,2.00,
22-01-S,16,10,20,0.10,2.00,
22-27-2021,7,5,10,0.24,2.40,
6390B,1,1,1,2.80,2.80,
7815CP,1,1,1,0.45,0.45,
BC327,2,5,5,0.09,0.45,
BC337,5,5,5,0.10,0.50,
BS170,1,5,5,0.20,1.00,
HTC5S,1,1,1,2.90,2.90,"Thermal grease, only if not already available. Probably not needed"
P10-10K,1,1,1,0.45,0.45,
P10-1M,1,1,1,0.50,0.50,
PGM5526,1,5,5,0.25,1.25,"LDR"
TL431CLP,1,1,1,0.30,0.30,
T910Y-5K,2,1,2,0.40,0.80,
V10-250R,1,1,1,0.45,0.45,
V10-1K,1,1,1,0.40,0.40,
V10-100K,3,1,3,0.40,1.20,
"Screws: 6-32 UNC",1,---,---,---,---,"Can supply myself"
"Screws: Self-tapping UTS #6 x 1/4"" (M3.5 x 6.4mm)",3,---,---,---,---,"For mounting PCB"
"Total length of wires required, 0.35 mm^2",197.5cm,---,---,---,---,"6x 2x 10cm for PWR and I/O + 1x 2x 30cm for LDR + PCB links and wires (17.5 cm)"
"Some thin rigid tube to glue LDR in",1,---,---,---,---,"Can supply myself"
Total,,,,,33.15,
